Peaje_VHDL/Peaje/simulation/qsim/Peaje.msim.vcd
$comment
	File created using the following command:
		vcd file Peaje.msim.vcd -direction
$end
$date
	Tue Mar 19 16:16:13 2024
$end
$version
	ModelSim Version 10.1d
$end
$timescale
	1ps
$end
$scope module Peaje_vlg_vec_tst $end
$var reg 1 ! Butt_inten $end
$var reg 1 " Butt_reset_manual $end
$var reg 1 # Butt_sema $end
$var reg 5 $ Cat_ID [4:0] $end
$var reg 1 % CLK $end
$var reg 1 & Sens_Back $end
$var reg 1 ' Sens_Front $end
$var wire 1 ( Alarma $end
$var wire 1 ) dinero [4] $end
$var wire 1 * dinero [3] $end
$var wire 1 + dinero [2] $end
$var wire 1 , dinero [1] $end
$var wire 1 - dinero [0] $end
$var wire 1 . Sema_fin_rojo $end
$var wire 1 / Sema_fin_verde $end
$var wire 1 0 Sema_ini_rojo $end
$var wire 1 1 Sema_ini_verde $end
$var wire 1 2 Tal_fin $end
$var wire 1 3 Tal_ini $end
$var wire 1 4 sampler $end
$scope module i1 $end
$var wire 1 5 gnd $end
$var wire 1 6 vcc $end
$var wire 1 7 unknown $end
$var tri1 1 8 devclrn $end
$var tri1 1 9 devpor $end
$var tri1 1 : devoe $end
$var wire 1 ; Butt_reset_manual~input_o $end
$var wire 1 < Cat_ID[2]~input_o $end
$var wire 1 = Cat_ID[3]~input_o $end
$var wire 1 > Cat_ID[4]~input_o $end
$var wire 1 ? Sema_ini_verde~output_o $end
$var wire 1 @ Sema_ini_rojo~output_o $end
$var wire 1 A Sema_fin_verde~output_o $end
$var wire 1 B Sema_fin_rojo~output_o $end
$var wire 1 C Tal_ini~output_o $end
$var wire 1 D Tal_fin~output_o $end
$var wire 1 E Alarma~output_o $end
$var wire 1 F dinero[0]~output_o $end
$var wire 1 G dinero[1]~output_o $end
$var wire 1 H dinero[2]~output_o $end
$var wire 1 I dinero[3]~output_o $end
$var wire 1 J dinero[4]~output_o $end
$var wire 1 K Butt_sema~input_o $end
$var wire 1 L Semaforo_Talanquera_inical|Button~feeder_combout $end
$var wire 1 M CLK~input_o $end
$var wire 1 N CLK~inputclkctrl_outclk $end
$var wire 1 O Divisor_frecuencias|Add1~0_combout $end
$var wire 1 P Divisor_frecuencias|count2~5_combout $end
$var wire 1 Q Divisor_frecuencias|Add1~1 $end
$var wire 1 R Divisor_frecuencias|Add1~2_combout $end
$var wire 1 S Divisor_frecuencias|Add1~3 $end
$var wire 1 T Divisor_frecuencias|Add1~4_combout $end
$var wire 1 U Divisor_frecuencias|Add1~5 $end
$var wire 1 V Divisor_frecuencias|Add1~6_combout $end
$var wire 1 W Divisor_frecuencias|Add1~7 $end
$var wire 1 X Divisor_frecuencias|Add1~8_combout $end
$var wire 1 Y Divisor_frecuencias|Add1~9 $end
$var wire 1 Z Divisor_frecuencias|Add1~10_combout $end
$var wire 1 [ Divisor_frecuencias|Add1~11 $end
$var wire 1 \ Divisor_frecuencias|Add1~12_combout $end
$var wire 1 ] Divisor_frecuencias|count2~4_combout $end
$var wire 1 ^ Divisor_frecuencias|Add1~13 $end
$var wire 1 _ Divisor_frecuencias|Add1~14_combout $end
$var wire 1 ` Divisor_frecuencias|Add1~15 $end
$var wire 1 a Divisor_frecuencias|Add1~16_combout $end
$var wire 1 b Divisor_frecuencias|Add1~17 $end
$var wire 1 c Divisor_frecuencias|Add1~18_combout $end
$var wire 1 d Divisor_frecuencias|Add1~19 $end
$var wire 1 e Divisor_frecuencias|Add1~20_combout $end
$var wire 1 f Divisor_frecuencias|Add1~21 $end
$var wire 1 g Divisor_frecuencias|Add1~22_combout $end
$var wire 1 h Divisor_frecuencias|count2~3_combout $end
$var wire 1 i Divisor_frecuencias|Add1~23 $end
$var wire 1 j Divisor_frecuencias|Add1~24_combout $end
$var wire 1 k Divisor_frecuencias|count2~2_combout $end
$var wire 1 l Divisor_frecuencias|Add1~25 $end
$var wire 1 m Divisor_frecuencias|Add1~26_combout $end
$var wire 1 n Divisor_frecuencias|count2~1_combout $end
$var wire 1 o Divisor_frecuencias|Add1~27 $end
$var wire 1 p Divisor_frecuencias|Add1~28_combout $end
$var wire 1 q Divisor_frecuencias|count2~0_combout $end
$var wire 1 r Divisor_frecuencias|Add1~29 $end
$var wire 1 s Divisor_frecuencias|Add1~30_combout $end
$var wire 1 t Divisor_frecuencias|Add1~31 $end
$var wire 1 u Divisor_frecuencias|Add1~32_combout $end
$var wire 1 v Divisor_frecuencias|count2~6_combout $end
$var wire 1 w Divisor_frecuencias|Add1~33 $end
$var wire 1 x Divisor_frecuencias|Add1~34_combout $end
$var wire 1 y Divisor_frecuencias|Add1~35 $end
$var wire 1 z Divisor_frecuencias|Add1~36_combout $end
$var wire 1 { Divisor_frecuencias|count2~7_combout $end
$var wire 1 | Divisor_frecuencias|Add1~37 $end
$var wire 1 } Divisor_frecuencias|Add1~38_combout $end
$var wire 1 ~ Divisor_frecuencias|count2~8_combout $end
$var wire 1 !! Divisor_frecuencias|Add1~39 $end
$var wire 1 "! Divisor_frecuencias|Add1~40_combout $end
$var wire 1 #! Divisor_frecuencias|count2~10_combout $end
$var wire 1 $! Divisor_frecuencias|Add1~41 $end
$var wire 1 %! Divisor_frecuencias|Add1~42_combout $end
$var wire 1 &! Divisor_frecuencias|count2~11_combout $end
$var wire 1 '! Divisor_frecuencias|Add1~43 $end
$var wire 1 (! Divisor_frecuencias|Add1~44_combout $end
$var wire 1 )! Divisor_frecuencias|count2~12_combout $end
$var wire 1 *! Divisor_frecuencias|Add1~45 $end
$var wire 1 +! Divisor_frecuencias|Add1~46_combout $end
$var wire 1 ,! Divisor_frecuencias|Add1~47 $end
$var wire 1 -! Divisor_frecuencias|Add1~48_combout $end
$var wire 1 .! Divisor_frecuencias|count2~9_combout $end
$var wire 1 /! Divisor_frecuencias|Equal1~5_combout $end
$var wire 1 0! Divisor_frecuencias|Equal1~6_combout $end
$var wire 1 1! Divisor_frecuencias|Equal1~3_combout $end
$var wire 1 2! Divisor_frecuencias|Equal1~0_combout $end
$var wire 1 3! Divisor_frecuencias|Equal1~1_combout $end
$var wire 1 4! Divisor_frecuencias|Equal1~2_combout $end
$var wire 1 5! Divisor_frecuencias|Equal1~4_combout $end
$var wire 1 6! Divisor_frecuencias|Equal1~7_combout $end
$var wire 1 7! Divisor_frecuencias|out2~0_combout $end
$var wire 1 8! Divisor_frecuencias|out2~feeder_combout $end
$var wire 1 9! Divisor_frecuencias|out2~q $end
$var wire 1 :! Divisor_frecuencias|out2~clkctrl_outclk $end
$var wire 1 ;! Sens_Back~input_o $end
$var wire 1 <! Back_sensor_funcion|cnt[1]~0_combout $end
$var wire 1 =! Back_sensor_funcion|cnt[0]~1_combout $end
$var wire 1 >! Back_sensor_funcion|Pul_reset~0_combout $end
$var wire 1 ?! Back_sensor_funcion|Pul_reset~q $end
$var wire 1 @! Semaforo_Talanquera_inical|Button~q $end
$var wire 1 A! Sens_Front~input_o $end
$var wire 1 B! Cat_ID[1]~input_o $end
$var wire 1 C! Cat_ID[0]~input_o $end
$var wire 1 D! Front_sensor_funcion|Equal0~0_combout $end
$var wire 1 E! Butt_inten~input_o $end
$var wire 1 F! Front_sensor_funcion|Detector:deten_pro~0_combout $end
$var wire 1 G! Front_sensor_funcion|Detector:deten_pro~combout $end
$var wire 1 H! Front_sensor_funcion|cerrado~0_combout $end
$var wire 1 I! Front_sensor_funcion|cerrado~q $end
$var wire 1 J! Semaforo_Talanquera_inical|Paso~combout $end
$var wire 1 K! Semaforo_Talanquera_inical|TalIni~combout $end
$var wire 1 L! Semaforo_Talanquera_final|verde~0_combout $end
$var wire 1 M! Divisor_frecuencias|Add0~0_combout $end
$var wire 1 N! Divisor_frecuencias|count1~0_combout $end
$var wire 1 O! Divisor_frecuencias|Add0~1 $end
$var wire 1 P! Divisor_frecuencias|Add0~2_combout $end
$var wire 1 Q! Divisor_frecuencias|Add0~3 $end
$var wire 1 R! Divisor_frecuencias|Add0~4_combout $end
$var wire 1 S! Divisor_frecuencias|Add0~5 $end
$var wire 1 T! Divisor_frecuencias|Add0~6_combout $end
$var wire 1 U! Divisor_frecuencias|Add0~7 $end
$var wire 1 V! Divisor_frecuencias|Add0~8_combout $end
$var wire 1 W! Divisor_frecuencias|Add0~9 $end
$var wire 1 X! Divisor_frecuencias|Add0~10_combout $end
$var wire 1 Y! Divisor_frecuencias|Add0~11 $end
$var wire 1 Z! Divisor_frecuencias|Add0~12_combout $end
$var wire 1 [! Divisor_frecuencias|Add0~13 $end
$var wire 1 \! Divisor_frecuencias|Add0~14_combout $end
$var wire 1 ]! Divisor_frecuencias|count1~1_combout $end
$var wire 1 ^! Divisor_frecuencias|Add0~15 $end
$var wire 1 _! Divisor_frecuencias|Add0~16_combout $end
$var wire 1 `! Divisor_frecuencias|Add0~17 $end
$var wire 1 a! Divisor_frecuencias|Add0~18_combout $end
$var wire 1 b! Divisor_frecuencias|Add0~19 $end
$var wire 1 c! Divisor_frecuencias|Add0~20_combout $end
$var wire 1 d! Divisor_frecuencias|Add0~21 $end
$var wire 1 e! Divisor_frecuencias|Add0~22_combout $end
$var wire 1 f! Divisor_frecuencias|Add0~23 $end
$var wire 1 g! Divisor_frecuencias|Add0~24_combout $end
$var wire 1 h! Divisor_frecuencias|count1~2_combout $end
$var wire 1 i! Divisor_frecuencias|Add0~25 $end
$var wire 1 j! Divisor_frecuencias|Add0~26_combout $end
$var wire 1 k! Divisor_frecuencias|count1~3_combout $end
$var wire 1 l! Divisor_frecuencias|Add0~27 $end
$var wire 1 m! Divisor_frecuencias|Add0~28_combout $end
$var wire 1 n! Divisor_frecuencias|count1~4_combout $end
$var wire 1 o! Divisor_frecuencias|Add0~29 $end
$var wire 1 p! Divisor_frecuencias|Add0~30_combout $end
$var wire 1 q! Divisor_frecuencias|count1~5_combout $end
$var wire 1 r! Divisor_frecuencias|Add0~31 $end
$var wire 1 s! Divisor_frecuencias|Add0~32_combout $end
$var wire 1 t! Divisor_frecuencias|Add0~33 $end
$var wire 1 u! Divisor_frecuencias|Add0~34_combout $end
$var wire 1 v! Divisor_frecuencias|count1~6_combout $end
$var wire 1 w! Divisor_frecuencias|Add0~35 $end
$var wire 1 x! Divisor_frecuencias|Add0~36_combout $end
$var wire 1 y! Divisor_frecuencias|Add0~37 $end
$var wire 1 z! Divisor_frecuencias|Add0~38_combout $end
$var wire 1 {! Divisor_frecuencias|count1~7_combout $end
$var wire 1 |! Divisor_frecuencias|Add0~39 $end
$var wire 1 }! Divisor_frecuencias|Add0~40_combout $end
$var wire 1 ~! Divisor_frecuencias|count1~8_combout $end
$var wire 1 !" Divisor_frecuencias|Add0~41 $end
$var wire 1 "" Divisor_frecuencias|Add0~42_combout $end
$var wire 1 #" Divisor_frecuencias|count1~9_combout $end
$var wire 1 $" Divisor_frecuencias|Add0~43 $end
$var wire 1 %" Divisor_frecuencias|Add0~44_combout $end
$var wire 1 &" Divisor_frecuencias|count1~10_combout $end
$var wire 1 '" Divisor_frecuencias|Add0~45 $end
$var wire 1 (" Divisor_frecuencias|Add0~46_combout $end
$var wire 1 )" Divisor_frecuencias|count1~11_combout $end
$var wire 1 *" Divisor_frecuencias|Equal0~6_combout $end
$var wire 1 +" Divisor_frecuencias|Add0~47 $end
$var wire 1 ," Divisor_frecuencias|Add0~48_combout $end
$var wire 1 -" Divisor_frecuencias|Add0~49 $end
$var wire 1 ." Divisor_frecuencias|Add0~50_combout $end
$var wire 1 /" Divisor_frecuencias|count1~12_combout $end
$var wire 1 0" Divisor_frecuencias|Equal0~7_combout $end
$var wire 1 1" Divisor_frecuencias|Equal0~5_combout $end
$var wire 1 2" Divisor_frecuencias|Equal0~1_combout $end
$var wire 1 3" Divisor_frecuencias|Equal0~3_combout $end
$var wire 1 4" Divisor_frecuencias|Equal0~2_combout $end
$var wire 1 5" Divisor_frecuencias|Equal0~0_combout $end
$var wire 1 6" Divisor_frecuencias|Equal0~4_combout $end
$var wire 1 7" Divisor_frecuencias|Equal0~8_combout $end
$var wire 1 8" Divisor_frecuencias|out1~0_combout $end
$var wire 1 9" Divisor_frecuencias|out1~q $end
$var wire 1 :" Semaforo_Talanquera_final|rojo~combout $end
$var wire 1 ;" Front_sensor_funcion|Detector:var_alarma~0_combout $end
$var wire 1 <" Front_sensor_funcion|Detector:var_alarma~combout $end
$var wire 1 =" Divisor_frecuencias|count1 [25] $end
$var wire 1 >" Divisor_frecuencias|count1 [24] $end
$var wire 1 ?" Divisor_frecuencias|count1 [23] $end
$var wire 1 @" Divisor_frecuencias|count1 [22] $end
$var wire 1 A" Divisor_frecuencias|count1 [21] $end
$var wire 1 B" Divisor_frecuencias|count1 [20] $end
$var wire 1 C" Divisor_frecuencias|count1 [19] $end
$var wire 1 D" Divisor_frecuencias|count1 [18] $end
$var wire 1 E" Divisor_frecuencias|count1 [17] $end
$var wire 1 F" Divisor_frecuencias|count1 [16] $end
$var wire 1 G" Divisor_frecuencias|count1 [15] $end
$var wire 1 H" Divisor_frecuencias|count1 [14] $end
$var wire 1 I" Divisor_frecuencias|count1 [13] $end
$var wire 1 J" Divisor_frecuencias|count1 [12] $end
$var wire 1 K" Divisor_frecuencias|count1 [11] $end
$var wire 1 L" Divisor_frecuencias|count1 [10] $end
$var wire 1 M" Divisor_frecuencias|count1 [9] $end
$var wire 1 N" Divisor_frecuencias|count1 [8] $end
$var wire 1 O" Divisor_frecuencias|count1 [7] $end
$var wire 1 P" Divisor_frecuencias|count1 [6] $end
$var wire 1 Q" Divisor_frecuencias|count1 [5] $end
$var wire 1 R" Divisor_frecuencias|count1 [4] $end
$var wire 1 S" Divisor_frecuencias|count1 [3] $end
$var wire 1 T" Divisor_frecuencias|count1 [2] $end
$var wire 1 U" Divisor_frecuencias|count1 [1] $end
$var wire 1 V" Divisor_frecuencias|count1 [0] $end
$var wire 1 W" Divisor_frecuencias|count2 [24] $end
$var wire 1 X" Divisor_frecuencias|count2 [23] $end
$var wire 1 Y" Divisor_frecuencias|count2 [22] $end
$var wire 1 Z" Divisor_frecuencias|count2 [21] $end
$var wire 1 [" Divisor_frecuencias|count2 [20] $end
$var wire 1 \" Divisor_frecuencias|count2 [19] $end
$var wire 1 ]" Divisor_frecuencias|count2 [18] $end
$var wire 1 ^" Divisor_frecuencias|count2 [17] $end
$var wire 1 _" Divisor_frecuencias|count2 [16] $end
$var wire 1 `" Divisor_frecuencias|count2 [15] $end
$var wire 1 a" Divisor_frecuencias|count2 [14] $end
$var wire 1 b" Divisor_frecuencias|count2 [13] $end
$var wire 1 c" Divisor_frecuencias|count2 [12] $end
$var wire 1 d" Divisor_frecuencias|count2 [11] $end
$var wire 1 e" Divisor_frecuencias|count2 [10] $end
$var wire 1 f" Divisor_frecuencias|count2 [9] $end
$var wire 1 g" Divisor_frecuencias|count2 [8] $end
$var wire 1 h" Divisor_frecuencias|count2 [7] $end
$var wire 1 i" Divisor_frecuencias|count2 [6] $end
$var wire 1 j" Divisor_frecuencias|count2 [5] $end
$var wire 1 k" Divisor_frecuencias|count2 [4] $end
$var wire 1 l" Divisor_frecuencias|count2 [3] $end
$var wire 1 m" Divisor_frecuencias|count2 [2] $end
$var wire 1 n" Divisor_frecuencias|count2 [1] $end
$var wire 1 o" Divisor_frecuencias|count2 [0] $end
$var wire 1 p" Back_sensor_funcion|cnt [1] $end
$var wire 1 q" Back_sensor_funcion|cnt [0] $end
$upscope $end
$upscope $end
$enddefinitions $end
#0
$dumpvars
1!
1"
1#
b1 $
0%
0&
0'
x(
0-
0,
0+
0*
0)
0.
0/
10
01
02
03
x4
05
16
x7
18
19
1:
1;
0<
0=
0>
0?
1@
0A
0B
0C
0D
xE
0F
0G
0H
0I
0J
1K
1L
0M
0N
1O
1P
0Q
0R
1S
0T
0U
0V
1W
0X
0Y
0Z
1[
0\
0]
0^
0_
1`
0a
0b
0c
1d
0e
0f
0g
0h
1i
0j
0k
0l
0m
0n
1o
0p
0q
0r
0s
1t
0u
0v
0w
0x
1y
0z
0{
0|
0}
0~
1!!
0"!
0#!
0$!
0%!
0&!
1'!
0(!
0)!
0*!
0+!
1,!
0-!
0.!
0/!
00!
11!
02!
03!
04!
05!
06!
07!
08!
09!
0:!
0;!
0<!
1=!
0>!
0?!
0@!
0A!
0B!
1C!
1D!
1E!
0F!
xG!
xH!
0I!
1J!
0K!
0L!
1M!
1N!
0O!
0P!
1Q!
0R!
0S!
0T!
1U!
0V!
0W!
0X!
1Y!
0Z!
0[!
0\!
0]!
1^!
0_!
0`!
0a!
1b!
0c!
0d!
0e!
1f!
0g!
0h!
0i!
0j!
0k!
1l!
0m!
0n!
0o!
0p!
0q!
1r!
0s!
0t!
0u!
0v!
1w!
0x!
0y!
0z!
0{!
1|!
0}!
0~!
0!"
0""
0#"
1$"
0%"
0&"
0'"
0("
0)"
0*"
1+"
0,"
0-"
0."
0/"
00"
01"
02"
03"
14"
15"
06"
07"
08"
09"
0:"
0;"
x<"
0V"
0U"
0T"
0S"
0R"
0Q"
0P"
0O"
0N"
0M"
0L"
0K"
0J"
0I"
0H"
0G"
0F"
0E"
0D"
0C"
0B"
0A"
0@"
0?"
0>"
0="
0o"
0n"
0m"
0l"
0k"
0j"
0i"
0h"
0g"
0f"
0e"
0d"
0c"
0b"
0a"
0`"
0_"
0^"
0]"
0\"
0["
0Z"
0Y"
0X"
0W"
0q"
0p"
$end
#500
1%
1M
1N
04
1V"
1o"
05"
1O!
0M!
01!
1Q
0O
1P!
0N!
1R
0P
#1000
0%
0M
0N
14
#1500
1%
1M
1N
04
1U"
0V"
1n"
0o"
0Q!
0P!
0O!
1M!
0S
0R
0Q
1O
1R!
1Q!
1P!
1N!
1T
1S
1R
1P
0R!
0T
#2000
0%
0M
0N
14
#2500
1%
1M
1N
04
1V"
1o"
1O!
0M!
1Q
0O
0Q!
0P!
0N!
0S
0R
0P
1R!
1T
#3000
0%
0M
0N
14
#3500
1%
1M
1N
04
1T"
0U"
0V"
1m"
0n"
0o"
1S!
0R!
1Q!
1P!
0O!
1M!
1U
0T
1S
1R
0Q
1O
1T!
0S!
1R!
0P!
1N!
1V
0U
1T
0R
1P
0T!
0V
#4000
0%
0M
0N
14
#4500
1%
1M
1N
04
1V"
1o"
1O!
0M!
1Q
0O
1P!
0N!
1R
0P
#5000
0%
0M
0N
14
#5500
1%
1M
1N
04
1U"
0V"
1n"
0o"
0Q!
0P!
0O!
1M!
0S
0R
0Q
1O
1S!
0R!
1Q!
1P!
1N!
1U
0T
1S
1R
1P
1T!
0S!
1R!
1V
0U
1T
0T!
0V
#6000
0%
0M
0N
14
#6500
1%
1M
1N
04
1V"
1o"
1O!
0M!
1Q
0O
0Q!
0P!
0N!
0S
0R
0P
1S!
0R!
1U
0T
1T!
1V
#7000
0%
0M
0N
14
#7500
1%
1M
1N
04
1S"
0T"
0U"
0V"
1l"
0m"
0n"
0o"
0U!
0T!
0S!
1R!
1Q!
1P!
0O!
1M!
0W
0V
0U
1T
1S
1R
0Q
1O
1V!
1U!
1T!
0R!
0P!
1N!
1X
1W
1V
0T
0R
1P
0V!
0X
#8000
0%
0M
0N
14
#8500
1%
1M
1N
04
1V"
1o"
1O!
0M!
1Q
0O
1P!
0N!
1R
0P
#9000
0%
0M
0N
14
#9500
1%
1M
1N
04
1U"
0V"
1n"
0o"
0Q!
0P!
0O!
1M!
0S
0R
0Q
1O
1R!
1Q!
1P!
1N!
1T
1S
1R
1P
0R!
0T
#10000
0#
0%
0K
0M
0N
14
1@!
1K!
1C
1?
0@
13
11
00
#10500
1%
1M
1N
04
1V"
1o"
1O!
0M!
1Q
0O
0Q!
0P!
0N!
0S
0R
0P
1R!
1T
#11000
0%
0M
0N
14
#11500
1%
1M
1N
04
1T"
0U"
0V"
1m"
0n"
0o"
1S!
0R!
1Q!
1P!
0O!
1M!
1U
0T
1S
1R
0Q
1O
0U!
0T!
0S!
1R!
0P!
1N!
0W
0V
0U
1T
0R
1P
1V!
1U!
1T!
1X
1W
1V
0V!
0X
#12000
0%
0M
0N
14
#12500
1%
1M
1N
04
1V"
1o"
1O!
0M!
1Q
0O
1P!
0N!
1R
0P
#13000
0%
0M
0N
14
#13500
1%
1M
1N
04
1U"
0V"
1n"
0o"
0Q!
0P!
0O!
1M!
0S
0R
0Q
1O
1S!
0R!
1Q!
1P!
1N!
1U
0T
1S
1R
1P
0U!
0T!
0S!
1R!
0W
0V
0U
1T
1V!
1U!
1T!
1X
1W
1V
0V!
0X
#14000
0%
0M
0N
14
#14500
1%
1M
1N
04
1V"
1o"
1O!
0M!
1Q
0O
0Q!
0P!
0N!
0S
0R
0P
1S!
0R!
1U
0T
0U!
0T!
0W
0V
1V!
1X
#15000
0%
0M
0N
14
#15500
1%
1M
1N
04
1R"
0S"
0T"
0U"
0V"
1k"
0l"
0m"
0n"
0o"
1W!
0V!
15"
1U!
1T!
0S!
1R!
1Q!
1P!
0O!
1M!
1Y
0X
11!
1W
1V
0U
1T
1S
1R
0Q
1O
1X!
0W!
1V!
0T!
0R!
0P!
1N!
1Z
0Y
1X
0V
0T
0R
1P
0X!
0Z
#16000
0%
0M
0N
14
#16500
1%
1M
1N
04
1V"
1o"
05"
1O!
0M!
01!
1Q
0O
1P!
0N!
1R
0P
#17000
0%
0M
0N
14
#17500
1%
1M
1N
04
1U"
0V"
1n"
0o"
0Q!
0P!
0O!
1M!
0S
0R
0Q
1O
1R!
1Q!
1P!
1N!
1T
1S
1R
1P
0R!
0T
#18000
0%
0M
0N
14
#18500
1%
1M
1N
04
1V"
1o"
1O!
0M!
1Q
0O
0Q!
0P!
0N!
0S
0R
0P
1R!
1T
#19000
0%
0M
0N
14
#19500
1%
1M
1N
04
1T"
0U"
0V"
1m"
0n"
0o"
1S!
0R!
1Q!
1P!
0O!
1M!
1U
0T
1S
1R
0Q
1O
1T!
0S!
1R!
0P!
1N!
1V
0U
1T
0R
1P
0T!
0V
#20000
1#
0%
1K
0M
0N
14
#20500
1%
1M
1N
04
1V"
1o"
1O!
0M!
1Q
0O
1P!
0N!
1R
0P
#21000
0%
0M
0N
14
#21500
1%
1M
1N
04
1U"
0V"
1n"
0o"
0Q!
0P!
0O!
1M!
0S
0R
0Q
1O
1S!
0R!
1Q!
1P!
1N!
1U
0T
1S
1R
1P
1T!
0S!
1R!
1V
0U
1T
0T!
0V
#22000
0%
0M
0N
14
#22500
1%
1M
1N
04
1V"
1o"
1O!
0M!
1Q
0O
0Q!
0P!
0N!
0S
0R
0P
1S!
0R!
1U
0T
1T!
1V
#23000
0%
0M
0N
14
#23500
1%
1M
1N
04
1S"
0T"
0U"
0V"
1l"
0m"
0n"
0o"
0U!
0T!
0S!
1R!
1Q!
1P!
0O!
1M!
0W
0V
0U
1T
1S
1R
0Q
1O
1W!
0V!
1U!
1T!
0R!
0P!
1N!
1Y
0X
1W
1V
0T
0R
1P
1X!
0W!
1V!
1Z
0Y
1X
0X!
0Z
#24000
0%
0M
0N
14
#24500
1%
1M
1N
04
1V"
1o"
1O!
0M!
1Q
0O
1P!
0N!
1R
0P
#25000
0%
0M
0N
14
#25500
1%
1M
1N
04
1U"
0V"
1n"
0o"
0Q!
0P!
0O!
1M!
0S
0R
0Q
1O
1R!
1Q!
1P!
1N!
1T
1S
1R
1P
0R!
0T
#26000
0%
0M
0N
14
#26500
1%
1M
1N
04
1V"
1o"
1O!
0M!
1Q
0O
0Q!
0P!
0N!
0S
0R
0P
1R!
1T
#27000
0%
0M
0N
14
#27500
1%
1M
1N
04
1T"
0U"
0V"
1m"
0n"
0o"
1S!
0R!
1Q!
1P!
0O!
1M!
1U
0T
1S
1R
0Q
1O
0U!
0T!
0S!
1R!
0P!
1N!
0W
0V
0U
1T
0R
1P
1W!
0V!
1U!
1T!
1Y
0X
1W
1V
1X!
0W!
1V!
1Z
0Y
1X
0X!
0Z
#28000
0%
0M
0N
14
#28500
1%
1M
1N
04
1V"
1o"
1O!
0M!
1Q
0O
1P!
0N!
1R
0P
#29000
0%
0M
0N
14
#29500
1%
1M
1N
04
1U"
0V"
1n"
0o"
0Q!
0P!
0O!
1M!
0S
0R
0Q
1O
1S!
0R!
1Q!
1P!
1N!
1U
0T
1S
1R
1P
0U!
0T!
0S!
1R!
0W
0V
0U
1T
1W!
0V!
1U!
1T!
1Y
0X
1W
1V
1X!
0W!
1V!
1Z
0Y
1X
0X!
0Z
#30000
0%
0M
0N
14
#30500
1%
1M
1N
04
1V"
1o"
1O!
0M!
1Q
0O
0Q!
0P!
0N!
0S
0R
0P
1S!
0R!
1U
0T
0U!
0T!
0W
0V
1W!
0V!
1Y
0X
1X!
1Z
#31000
0%
0M
0N
14
#31500
1%
1M
1N
04
1Q"
0R"
0S"
0T"
0U"
0V"
1j"
0k"
0l"
0m"
0n"
0o"
0Y!
0X!
0W!
1V!
15"
1U!
1T!
0S!
1R!
1Q!
1P!
0O!
1M!
0[
0Z
0Y
1X
11!
1W
1V
0U
1T
1S
1R
0Q
1O
1Z!
1Y!
1X!
0V!
0T!
0R!
0P!
1N!
1\
1[
1Z
0X
0V
0T
0R
1P
0Z!
1]
0\
0]
#32000
0%
0M
0N
14
#32500
1%
1M
1N
04
1V"
1o"
05"
1O!
0M!
01!
1Q
0O
1P!
0N!
1R
0P
#33000
0%
0M
0N
14
#33500
1%
1M
1N
04
1U"
0V"
1n"
0o"
0Q!
0P!
0O!
1M!
0S
0R
0Q
1O
1R!
1Q!
1P!
1N!
1T
1S
1R
1P
0R!
0T
#34000
0%
0M
0N
14
#34500
1%
1M
1N
04
1V"
1o"
1O!
0M!
1Q
0O
0Q!
0P!
0N!
0S
0R
0P
1R!
1T
#35000
0%
0M
0N
14
#35500
1%
1M
1N
04
1T"
0U"
0V"
1m"
0n"
0o"
1S!
0R!
1Q!
1P!
0O!
1M!
1U
0T
1S
1R
0Q
1O
1T!
0S!
1R!
0P!
1N!
1V
0U
1T
0R
1P
0T!
0V
#36000
0%
0M
0N
14
#36500
1%
1M
1N
04
1V"
1o"
1O!
0M!
1Q
0O
1P!
0N!
1R
0P
#37000
0%
0M
0N
14
#37500
1%
1M
1N
04
1U"
0V"
1n"
0o"
0Q!
0P!
0O!
1M!
0S
0R
0Q
1O
1S!
0R!
1Q!
1P!
1N!
1U
0T
1S
1R
1P
1T!
0S!
1R!
1V
0U
1T
0T!
0V
#38000
0%
0M
0N
14
#38500
1%
1M
1N
04
1V"
1o"
1O!
0M!
1Q
0O
0Q!
0P!
0N!
0S
0R
0P
1S!
0R!
1U
0T
1T!
1V
#39000
0%
0M
0N
14
#39500
1%
1M
1N
04
1S"
0T"
0U"
0V"
1l"
0m"
0n"
0o"
0U!
0T!
0S!
1R!
1Q!
1P!
0O!
1M!
0W
0V
0U
1T
1S
1R
0Q
1O
1V!
1U!
1T!
0R!
0P!
1N!
1X
1W
1V
0T
0R
1P
0V!
0X
#40000
0%
0M
0N
14
#40500
1%
1M
1N
04
1V"
1o"
1O!
0M!
1Q
0O
1P!
0N!
1R
0P
#41000
0%
0M
0N
14
#41500
1%
1M
1N
04
1U"
0V"
1n"
0o"
0Q!
0P!
0O!
1M!
0S
0R
0Q
1O
1R!
1Q!
1P!
1N!
1T
1S
1R
1P
0R!
0T
#42000
0%
0M
0N
14
#42500
1%
1M
1N
04
1V"
1o"
1O!
0M!
1Q
0O
0Q!
0P!
0N!
0S
0R
0P
1R!
1T
#43000
0%
0M
0N
14
#43500
1%
1M
1N
04
1T"
0U"
0V"
1m"
0n"
0o"
1S!
0R!
1Q!
1P!
0O!
1M!
1U
0T
1S
1R
0Q
1O
0U!
0T!
0S!
1R!
0P!
1N!
0W
0V
0U
1T
0R
1P
1V!
1U!
1T!
1X
1W
1V
0V!
0X
#44000
0%
0M
0N
14
#44500
1%
1M
1N
04
1V"
1o"
1O!
0M!
1Q
0O
1P!
0N!
1R
0P
#45000
0%
0M
0N
14
#45500
1%
1M
1N
04
1U"
0V"
1n"
0o"
0Q!
0P!
0O!
1M!
0S
0R
0Q
1O
1S!
0R!
1Q!
1P!
1N!
1U
0T
1S
1R
1P
0U!
0T!
0S!
1R!
0W
0V
0U
1T
1V!
1U!
1T!
1X
1W
1V
0V!
0X
#46000
0%
0M
0N
14
#46500
1%
1M
1N
04
1V"
1o"
1O!
0M!
1Q
0O
0Q!
0P!
0N!
0S
0R
0P
1S!
0R!
1U
0T
0U!
0T!
0W
0V
1V!
1X
#47000
0%
0M
0N
14
#47500
1%
1M
1N
04
1R"
0S"
0T"
0U"
0V"
1k"
0l"
0m"
0n"
0o"
1W!
0V!
15"
1U!
1T!
0S!
1R!
1Q!
1P!
0O!
1M!
1Y
0X
11!
1W
1V
0U
1T
1S
1R
0Q
1O
0Y!
0X!
0W!
1V!
0T!
0R!
0P!
1N!
0[
0Z
0Y
1X
0V
0T
0R
1P
1Z!
1Y!
1X!
1\
1[
1Z
0Z!
1]
0\
0]
#48000
0%
0M
0N
14
#48500
1%
1M
1N
04
1V"
1o"
05"
1O!
0M!
01!
1Q
0O
1P!
0N!
1R
0P
#49000
0%
0M
0N
14
#49500
1%
1M
1N
04
1U"
0V"
1n"
0o"
0Q!
0P!
0O!
1M!
0S
0R
0Q
1O
1R!
1Q!
1P!
1N!
1T
1S
1R
1P
0R!
0T
#50000
1'
0%
1A!
0M
0N
14
#50500
1%
1M
1N
04
1V"
1o"
1O!
0M!
1Q
0O
0Q!
0P!
0N!
0S
0R
0P
1R!
1T
#51000
0%
0M
0N
14
#51500
1%
1M
1N
04
1T"
0U"
0V"
1m"
0n"
0o"
1S!
0R!
1Q!
1P!
0O!
1M!
1U
0T
1S
1R
0Q
1O
1T!
0S!
1R!
0P!
1N!
1V
0U
1T
0R
1P
0T!
0V
#52000
0%
0M
0N
14
