Peaje_segundo_corte/Contador_tiempo/simulation/qsim/Contador_tiempo.msim.vcd
$comment
	File created using the following command:
		vcd file Contador_tiempo.msim.vcd -direction
$end
$date
	Wed May 15 14:51:01 2024
$end
$version
	ModelSim Version 10.1d
$end
$timescale
	1ps
$end
$scope module Contador_tiempo_vlg_vec_tst $end
$var reg 1 ! CLK $end
$var reg 1 " enable $end
$var reg 1 # reset $end
$var wire 1 $ count [2] $end
$var wire 1 % count [1] $end
$var wire 1 & count [0] $end
$var wire 1 ' minsal $end
$var wire 1 ( sampler $end
$scope module i1 $end
$var wire 1 ) gnd $end
$var wire 1 * vcc $end
$var wire 1 + unknown $end
$var tri1 1 , devclrn $end
$var tri1 1 - devpor $end
$var tri1 1 . devoe $end
$var wire 1 / count[0]~output_o $end
$var wire 1 0 count[1]~output_o $end
$var wire 1 1 count[2]~output_o $end
$var wire 1 2 minsal~output_o $end
$var wire 1 3 CLK~input_o $end
$var wire 1 4 CLK~inputclkctrl_outclk $end
$var wire 1 5 cnt[0]~5_combout $end
$var wire 1 6 reset~input_o $end
$var wire 1 7 cnt[0]~6 $end
$var wire 1 8 cnt[1]~9_combout $end
$var wire 1 9 enable~input_o $end
$var wire 1 : cnt[0]~8_combout $end
$var wire 1 ; cnt[1]~10 $end
$var wire 1 < cnt[2]~11_combout $end
$var wire 1 = cnt[2]~12 $end
$var wire 1 > cnt[3]~13_combout $end
$var wire 1 ? cnt[3]~14 $end
$var wire 1 @ cnt[4]~15_combout $end
$var wire 1 A minsal~0_combout $end
$var wire 1 B cnt[0]~7_combout $end
$var wire 1 C minsal~1_combout $end
$var wire 1 D minsal~2_combout $end
$var wire 1 E minsal~reg0_q $end
$var wire 1 F cnt [4] $end
$var wire 1 G cnt [3] $end
$var wire 1 H cnt [2] $end
$var wire 1 I cnt [1] $end
$var wire 1 J cnt [0] $end
$upscope $end
$upscope $end
$enddefinitions $end
#0
$dumpvars
0!
0"
1#
0&
0%
0$
0'
x(
0)
1*
x+
1,
1-
1.
0/
00
01
02
03
04
15
16
07
08
09
0:
1;
0<
0=
0>
1?
0@
0A
0B
0C
0D
0E
0J
0I
0H
0G
0F
$end
#5000
1!
13
14
0(
#10000
1"
0!
19
03
04
1(
1:
#15000
1!
13
14
0(
1J
17
05
1/
1&
18
#20000
0!
03
04
1(
#25000
1!
13
14
0(
0J
1I
07
15
0;
08
0/
10
0&
1%
1;
18
1<
0<
#30000
0!
03
04
1(
#35000
1!
13
14
0(
1J
17
05
1/
1&
0;
08
1<
#40000
0!
03
04
1(
#45000
1!
13
14
0(
0J
1H
0I
07
15
1=
0<
1;
18
0/
11
00
0&
1$
0%
08
1>
0=
1<
0>
#50000
0!
03
04
1(
#55000
1!
13
14
0(
1J
17
05
1/
1&
18
#60000
0!
03
04
1(
#65000
1!
13
14
0(
0J
1I
07
15
1A
0;
08
0/
10
0&
1%
1;
18
1C
1=
0<
0=
1<
1D
1>
0>
#70000
0!
03
04
1(
#75000
1!
13
14
0(
1E
1J
0C
1B
17
05
12
1/
1'
1&
0D
0;
08
1=
0<
1>
#80000
0!
03
04
1(
#85000
1!
13
14
0(
0E
0J
0H
0I
1C
0B
07
15
0A
0=
1<
1;
18
02
0/
01
00
0'
0&
0$
0%
1D
08
0C
0>
0<
0D
#90000
0!
03
04
1(
#95000
1!
13
14
0(
1J
17
05
1/
1&
18
#100000
0!
03
04
1(
#105000
1!
13
14
0(
0J
1I
07
15
0;
08
0/
10
0&
1%
1;
18
1<
0<
#110000
0!
03
04
1(
#115000
1!
13
14
0(
1J
17
05
1/
1&
0;
08
1<
#120000
0!
03
04
1(
#125000
1!
13
14
0(
0J
1H
0I
07
15
1=
0<
1;
18
0/
11
00
0&
1$
0%
08
1>
0=
1<
0>
#130000
0!
03
04
1(
#135000
1!
13
14
0(
1J
17
05
1/
1&
18
#140000
0!
03
04
1(
#145000
1!
13
14
0(
0J
1I
07
15
1A
0;
08
0/
10
0&
1%
1;
18
1C
1=
0<
0=
1<
1D
1>
0>
#150000
0!
03
04
1(
#155000
1!
13
14
0(
1E
1J
0C
1B
17
05
12
1/
1'
1&
0D
0;
08
1=
0<
1>
#160000
0!
03
04
1(
#165000
1!
13
14
0(
0E
0J
0H
0I
1C
0B
07
15
0A
0=
1<
1;
18
02
0/
01
00
0'
0&
0$
0%
1D
08
0C
0>
0<
0D
#170000
0!
03
04
1(
#175000
1!
13
14
0(
1J
17
05
1/
1&
18
#180000
0!
03
04
1(
#185000
1!
13
14
0(
0J
1I
07
15
0;
08
0/
10
0&
1%
1;
18
1<
0<
#190000
0!
03
04
1(
#195000
1!
13
14
0(
1J
17
05
1/
1&
0;
08
1<
#200000
0!
03
04
1(
#205000
1!
13
14
0(
0J
1H
0I
07
15
1=
0<
1;
18
0/
11
00
0&
1$
0%
08
1>
0=
1<
0>
#210000
0!
03
04
1(
#215000
1!
13
14
0(
1J
17
05
1/
1&
18
#220000
0!
03
04
1(
#225000
1!
13
14
0(
0J
1I
07
15
1A
0;
08
0/
10
0&
1%
1;
18
1C
1=
0<
0=
1<
1D
1>
0>
#230000
0!
03
04
1(
#235000
1!
13
14
0(
1E
1J
0C
1B
17
05
12
1/
1'
1&
0D
0;
08
1=
0<
1>
#240000
0!
03
04
1(
#245000
1!
13
14
0(
0E
0J
0H
0I
1C
0B
07
15
0A
0=
1<
1;
18
02
0/
01
00
0'
0&
0$
0%
1D
08
0C
0>
0<
0D
#250000
0!
03
04
1(
#255000
1!
13
14
0(
1J
17
05
1/
1&
18
#260000
0!
03
04
1(
#265000
1!
13
14
0(
0J
1I
07
15
0;
08
0/
10
0&
1%
1;
18
1<
0<
#270000
0!
03
04
1(
#275000
1!
13
14
0(
1J
17
05
1/
1&
0;
08
1<
#280000
0!
03
04
1(
#285000
1!
13
14
0(
0J
1H
0I
07
15
1=
0<
1;
18
0/
11
00
0&
1$
0%
08
1>
0=
1<
0>
#290000
0!
03
04
1(
#295000
1!
13
14
0(
1J
17
05
1/
1&
18
#300000
0!
03
04
1(
#305000
1!
13
14
0(
0J
1I
07
15
1A
0;
08
0/
10
0&
1%
1;
18
1C
1=
0<
0=
1<
1D
1>
0>
#310000
0!
03
04
1(
#315000
1!
13
14
0(
1E
1J
0C
1B
17
05
12
1/
1'
1&
0D
0;
08
1=
0<
1>
#320000
0!
03
04
1(
#325000
1!
13
14
0(
0E
0J
0H
0I
1C
0B
07
15
0A
0=
1<
1;
18
02
0/
01
00
0'
0&
0$
0%
1D
08
0C
0>
0<
0D
#330000
0!
03
04
1(
#335000
1!
13
14
0(
1J
17
05
1/
1&
18
#340000
0!
03
04
1(
#345000
1!
13
14
0(
0J
1I
07
15
0;
08
0/
10
0&
1%
1;
18
1<
0<
#350000
0!
03
04
1(
#355000
1!
13
14
0(
1J
17
05
1/
1&
0;
08
1<
#360000
0!
03
04
1(
#365000
1!
13
14
0(
0J
1H
0I
07
15
1=
0<
1;
18
0/
11
00
0&
1$
0%
08
1>
0=
1<
0>
#370000
0!
03
04
1(
#375000
1!
13
14
0(
1J
17
05
1/
1&
18
#380000
0!
03
04
1(
#385000
1!
13
14
0(
0J
1I
07
15
1A
0;
08
0/
10
0&
1%
1;
18
1C
1=
0<
0=
1<
1D
1>
0>
#390000
0!
03
04
1(
#395000
1!
13
14
0(
1E
1J
0C
1B
17
05
12
1/
1'
1&
0D
0;
08
1=
0<
1>
#400000
0!
03
04
1(
#405000
1!
13
14
0(
0E
0J
0H
0I
1C
0B
07
15
0A
0=
1<
1;
18
02
0/
01
00
0'
0&
0$
0%
1D
08
0C
0>
0<
0D
#410000
0!
03
04
1(
#415000
1!
13
14
0(
1J
17
05
1/
1&
18
#420000
0!
03
04
1(
#425000
1!
13
14
0(
0J
1I
07
15
0;
08
0/
10
0&
1%
1;
18
1<
0<
#430000
0!
03
04
1(
#435000
1!
13
14
0(
1J
17
05
1/
1&
0;
08
1<
#440000
0!
03
04
1(
#445000
1!
13
14
0(
0J
1H
0I
07
15
1=
0<
1;
18
0/
11
00
0&
1$
0%
08
1>
0=
1<
0>
#450000
0!
03
04
1(
#455000
1!
13
14
0(
1J
17
05
1/
1&
18
#460000
0!
03
04
1(
#465000
1!
13
14
0(
0J
1I
07
15
1A
0;
08
0/
10
0&
1%
1;
18
1C
1=
0<
0=
1<
1D
1>
0>
#470000
0!
03
04
1(
#475000
1!
13
14
0(
1E
1J
0C
1B
17
05
12
1/
1'
1&
0D
0;
08
1=
0<
1>
#480000
0#
0!
06
03
04
1(
1D
#485000
1!
13
14
0(
0J
0H
0I
1C
07
15
0A
0=
1<
1;
18
0/
01
00
0&
0$
0%
08
0>
0<
#490000
0!
03
04
1(
#495000
1!
13
14
0(
#500000
0!
03
04
1(
#505000
1!
13
14
0(
#510000
0!
03
04
1(
#515000
1!
13
14
0(
#520000
0!
03
04
1(
#525000
1!
13
14
0(
#530000
0!
03
04
1(
#535000
1!
13
14
0(
#540000
1#
0!
16
03
04
1(
0B
#545000
1!
13
14
0(
1J
17
05
1/
1&
18
#550000
0!
03
04
1(
#555000
1!
13
14
0(
0J
1I
07
15
0;
08
0/
10
0&
1%
1;
18
1<
0<
#560000
0!
03
04
1(
#565000
1!
13
14
0(
1J
17
05
1/
1&
0;
08
1<
#570000
0!
03
04
1(
#575000
1!
13
14
0(
0J
1H
0I
07
15
1=
0<
1;
18
0/
11
00
0&
1$
0%
08
1>
0=
1<
0>
#580000
0!
03
04
1(
#585000
1!
13
14
0(
1J
17
05
1/
1&
18
#590000
0!
03
04
1(
#595000
1!
13
14
0(
0J
1I
07
15
1A
0;
08
0/
10
0&
1%
1;
18
1=
0<
0=
1<
1>
0>
#600000
0!
03
04
1(
#605000
1!
13
14
0(
1J
0C
1B
17
05
1/
1&
0D
0;
08
1=
0<
1>
#610000
0!
03
04
1(
#615000
1!
13
14
0(
0E
0J
0H
0I
1C
0B
07
15
0A
0=
1<
1;
18
02
0/
01
00
0'
0&
0$
0%
1D
08
0C
0>
0<
0D
#620000
0!
03
04
1(
#625000
1!
13
14
0(
1J
17
05
1/
1&
18
#630000
0!
03
04
1(
#635000
1!
13
14
0(
0J
1I
07
15
0;
08
0/
10
0&
1%
1;
18
1<
0<
#640000
0!
03
04
1(
#645000
1!
13
14
0(
1J
17
05
1/
1&
0;
08
1<
#650000
0!
03
04
1(
#655000
1!
13
14
0(
0J
1H
0I
07
15
1=
0<
1;
18
0/
11
00
0&
1$
0%
08
1>
0=
1<
0>
#660000
0"
0!
09
03
04
1(
0:
#665000
1!
13
14
0(
#670000
0!
03
04
1(
#675000
1!
13
14
0(
#680000
0!
03
04
1(
#685000
1!
13
14
0(
#690000
0!
03
04
1(
#695000
1!
13
14
0(
#700000
0!
03
04
1(
#705000
1!
13
14
0(
#710000
0!
03
04
1(
#715000
1!
13
14
0(
#720000
0!
03
04
1(
#725000
1!
13
14
0(
#730000
0!
03
04
1(
#735000
1!
13
14
0(
#740000
0!
03
04
1(
#745000
1!
13
14
0(
#750000
0!
03
04
1(
#755000
1!
13
14
0(
#760000
0!
03
04
1(
#765000
1!
13
14
0(
#770000
0!
03
04
1(
#775000
1!
13
14
0(
#780000
0!
03
04
1(
#785000
1!
13
14
0(
#790000
0!
03
04
1(
#795000
1!
13
14
0(
#800000
0!
03
04
1(
#805000
1!
13
14
0(
#810000
0!
03
04
1(
#815000
1!
13
14
0(
#820000
0!
03
04
1(
#825000
1!
13
14
0(
#830000
0!
03
04
1(
#835000
1!
13
14
0(
#840000
0!
03
04
1(
#845000
1!
13
14
0(
#850000
0!
03
04
1(
#855000
1!
13
14
0(
#860000
0!
03
04
1(
#865000
1!
13
14
0(
#870000
0!
03
04
1(
#875000
1!
13
14
0(
#880000
0!
03
04
1(
#885000
1!
13
14
0(
#890000
0!
03
04
1(
#895000
1!
13
14
0(
#900000
0!
03
04
1(
#905000
1!
13
14
0(
#910000
0!
03
04
1(
#915000
1!
13
14
0(
#920000
0!
03
04
1(
#925000
1!
13
14
0(
#930000
0!
03
04
1(
#935000
1!
13
14
0(
#940000
0!
03
04
1(
#945000
1!
13
14
0(
#950000
0!
03
04
1(
#955000
1!
13
14
0(
#960000
0!
03
04
1(
#965000
1!
13
14
0(
#970000
0!
03
04
1(
#975000
1!
13
14
0(
#980000
0!
03
04
1(
#985000
1!
13
14
0(
#990000
0!
03
04
1(
#995000
1!
13
14
0(
