Peaje_VHDL/Back_sensor/simulation/qsim/Back_sensor.msim.vcd
$comment
	File created using the following command:
		vcd file Back_sensor.msim.vcd -direction
$end
$date
	Tue Mar 19 11:15:49 2024
$end
$version
	ModelSim Version 10.1d
$end
$timescale
	1ps
$end
$scope module Back_sensor_vlg_vec_tst $end
$var reg 1 ! CLK $end
$var reg 1 " PresenceSensor $end
$var wire 1 # Reset $end
$var wire 1 $ StopTime $end
$var wire 1 % sampler $end
$scope module i1 $end
$var wire 1 & gnd $end
$var wire 1 ' vcc $end
$var wire 1 ( unknown $end
$var tri1 1 ) devclrn $end
$var tri1 1 * devpor $end
$var tri1 1 + devoe $end
$var wire 1 , Reset~output_o $end
$var wire 1 - StopTime~output_o $end
$var wire 1 . CLK~input_o $end
$var wire 1 / CLK~inputclkctrl_outclk $end
$var wire 1 0 PresenceSensor~input_o $end
$var wire 1 1 cnt[0]~1_combout $end
$var wire 1 2 cnt[1]~0_combout $end
$var wire 1 3 Pul_reset~0_combout $end
$var wire 1 4 Pul_reset~feeder_combout $end
$var wire 1 5 Pul_reset~q $end
$var wire 1 6 Pul_time~q $end
$var wire 1 7 cnt [1] $end
$var wire 1 8 cnt [0] $end
$upscope $end
$upscope $end
$enddefinitions $end
#0
$dumpvars
0!
0"
1#
0$
x%
0&
1'
x(
1)
1*
1+
1,
0-
0.
0/
00
11
02
03
04
05
06
08
07
$end
#5000
1!
1.
1/
0%
18
12
01
#10000
0!
0.
0/
1%
#15000
1!
1.
1/
0%
17
08
02
#20000
0!
0.
0/
1%
#25000
1!
1.
1/
0%
07
11
#30000
0!
0.
0/
1%
#35000
1!
1.
1/
0%
18
12
01
#40000
0!
0.
0/
1%
#45000
1!
1.
1/
0%
17
08
02
#50000
0!
0.
0/
1%
#55000
1!
1.
1/
0%
07
11
#60000
0!
0.
0/
1%
#65000
1!
1.
1/
0%
18
12
01
#70000
0!
0.
0/
1%
#75000
1!
1.
1/
0%
17
08
02
#80000
0!
0.
0/
1%
#85000
1!
1.
1/
0%
07
11
#90000
0!
0.
0/
1%
#95000
1!
1.
1/
0%
18
12
01
#100000
0!
0.
0/
1%
#105000
1!
1.
1/
0%
17
08
02
#110000
0!
0.
0/
1%
#115000
1!
1.
1/
0%
07
11
#120000
0!
0.
0/
1%
#125000
1!
1.
1/
0%
18
12
01
#130000
0!
0.
0/
1%
#135000
1!
1.
1/
0%
17
08
02
#140000
0!
0.
0/
1%
#145000
1!
1.
1/
0%
07
11
#150000
0!
0.
0/
1%
#155000
1!
1.
1/
0%
18
12
01
#160000
0!
0.
0/
1%
#165000
1!
1.
1/
0%
17
08
02
#170000
0!
0.
0/
1%
#175000
1!
1.
1/
0%
07
11
#180000
0!
0.
0/
1%
#185000
1!
1.
1/
0%
18
12
01
#190000
0!
0.
0/
1%
#195000
1!
1.
1/
0%
17
08
02
#200000
0!
0.
0/
1%
#205000
1!
1.
1/
0%
07
11
#210000
0!
0.
0/
1%
#215000
1!
1.
1/
0%
18
12
01
#220000
0!
0.
0/
1%
#225000
1!
1.
1/
0%
17
08
02
#230000
0!
0.
0/
1%
#235000
1!
1.
1/
0%
07
11
#240000
1"
0!
10
0.
0/
1%
13
01
14
#245000
1!
1.
1/
0%
15
16
0,
1-
0#
1$
#250000
0!
0.
0/
1%
#255000
1!
1.
1/
0%
#260000
0!
0.
0/
1%
#265000
1!
1.
1/
0%
#270000
0!
0.
0/
1%
#275000
1!
1.
1/
0%
#280000
0!
0.
0/
1%
#285000
1!
1.
1/
0%
#290000
0!
0.
0/
1%
#295000
1!
1.
1/
0%
#300000
0!
0.
0/
1%
#305000
1!
1.
1/
0%
#310000
0!
0.
0/
1%
#315000
1!
1.
1/
0%
#320000
0!
0.
0/
1%
#325000
1!
1.
1/
0%
#330000
0!
0.
0/
1%
#335000
1!
1.
1/
0%
#340000
0!
0.
0/
1%
#345000
1!
1.
1/
0%
#350000
0!
0.
0/
1%
#355000
1!
1.
1/
0%
#360000
0!
0.
0/
1%
#365000
1!
1.
1/
0%
#370000
0!
0.
0/
1%
#375000
1!
1.
1/
0%
#380000
0!
0.
0/
1%
#385000
1!
1.
1/
0%
#390000
0!
0.
0/
1%
#395000
1!
1.
1/
0%
#400000
0!
0.
0/
1%
#405000
1!
1.
1/
0%
#410000
0!
0.
0/
1%
#415000
1!
1.
1/
0%
#420000
0!
0.
0/
1%
#425000
1!
1.
1/
0%
#430000
0"
0!
00
0.
0/
1%
03
11
04
#435000
1!
1.
1/
0%
05
18
06
12
01
1,
0-
1#
0$
#440000
0!
0.
0/
1%
#445000
1!
1.
1/
0%
17
08
02
#450000
0!
0.
0/
1%
#455000
1!
1.
1/
0%
07
11
#460000
0!
0.
0/
1%
#465000
1!
1.
1/
0%
18
12
01
#470000
0!
0.
0/
1%
#475000
1!
1.
1/
0%
17
08
02
#480000
0!
0.
0/
1%
#485000
1!
1.
1/
0%
07
11
#490000
0!
0.
0/
1%
#495000
1!
1.
1/
0%
18
12
01
#500000
0!
0.
0/
1%
#505000
1!
1.
1/
0%
17
08
02
#510000
0!
0.
0/
1%
#515000
1!
1.
1/
0%
07
11
#520000
0!
0.
0/
1%
#525000
1!
1.
1/
0%
18
12
01
#530000
0!
0.
0/
1%
#535000
1!
1.
1/
0%
17
08
02
#540000
0!
0.
0/
1%
#545000
1!
1.
1/
0%
07
11
#550000
0!
0.
0/
1%
#555000
1!
1.
1/
0%
18
12
01
#560000
0!
0.
0/
1%
#565000
1!
1.
1/
0%
17
08
02
#570000
0!
0.
0/
1%
#575000
1!
1.
1/
0%
07
11
#580000
0!
0.
0/
1%
#585000
1!
1.
1/
0%
18
12
01
#590000
0!
0.
0/
1%
#595000
1!
1.
1/
0%
17
08
02
#600000
0!
0.
0/
1%
#605000
1!
1.
1/
0%
07
11
#610000
0!
0.
0/
1%
#615000
1!
1.
1/
0%
18
12
01
#620000
0!
0.
0/
1%
#625000
1!
1.
1/
0%
17
08
02
#630000
0!
0.
0/
1%
#635000
1!
1.
1/
0%
07
11
#640000
0!
0.
0/
1%
#645000
1!
1.
1/
0%
18
12
01
#650000
0!
0.
0/
1%
#655000
1!
1.
1/
0%
17
08
02
#660000
0!
0.
0/
1%
#665000
1!
1.
1/
0%
07
11
#670000
0!
0.
0/
1%
#675000
1!
1.
1/
0%
18
12
01
#680000
0!
0.
0/
1%
#685000
1!
1.
1/
0%
17
08
02
#690000
0!
0.
0/
1%
#695000
1!
1.
1/
0%
07
11
#700000
0!
0.
0/
1%
#705000
1!
1.
1/
0%
18
12
01
#710000
0!
0.
0/
1%
#715000
1!
1.
1/
0%
17
08
02
#720000
0!
0.
0/
1%
#725000
1!
1.
1/
0%
07
11
#730000
0!
0.
0/
1%
#735000
1!
1.
1/
0%
18
12
01
#740000
0!
0.
0/
1%
#745000
1!
1.
1/
0%
17
08
02
#750000
0!
0.
0/
1%
#755000
1!
1.
1/
0%
07
11
#760000
0!
0.
0/
1%
#765000
1!
1.
1/
0%
18
12
01
#770000
0!
0.
0/
1%
#775000
1!
1.
1/
0%
17
08
02
#780000
0!
0.
0/
1%
#785000
1!
1.
1/
0%
07
11
#790000
0!
0.
0/
1%
#795000
1!
1.
1/
0%
18
12
01
#800000
0!
0.
0/
1%
#805000
1!
1.
1/
0%
17
08
02
#810000
0!
0.
0/
1%
#815000
1!
1.
1/
0%
07
11
#820000
0!
0.
0/
1%
#825000
1!
1.
1/
0%
18
12
01
#830000
0!
0.
0/
1%
#835000
1!
1.
1/
0%
17
08
02
#840000
0!
0.
0/
1%
#845000
1!
1.
1/
0%
07
11
#850000
0!
0.
0/
1%
#855000
1!
1.
1/
0%
18
12
01
#860000
0!
0.
0/
1%
#865000
1!
1.
1/
0%
17
08
02
#870000
0!
0.
0/
1%
#875000
1!
1.
1/
0%
07
11
#880000
0!
0.
0/
1%
#885000
1!
1.
1/
0%
18
12
01
#890000
0!
0.
0/
1%
#895000
1!
1.
1/
0%
17
08
02
#900000
0!
0.
0/
1%
#905000
1!
1.
1/
0%
07
11
#910000
0!
0.
0/
1%
#915000
1!
1.
1/
0%
18
12
01
#920000
0!
0.
0/
1%
#925000
1!
1.
1/
0%
17
08
02
#930000
0!
0.
0/
1%
#935000
1!
1.
1/
0%
07
11
#940000
0!
0.
0/
1%
#945000
1!
1.
1/
0%
18
12
01
#950000
0!
0.
0/
1%
#955000
1!
1.
1/
0%
17
08
02
#960000
0!
0.
0/
1%
#965000
1!
1.
1/
0%
07
11
#970000
0!
0.
0/
1%
#975000
1!
1.
1/
0%
18
12
01
#980000
0!
0.
0/
1%
#985000
1!
1.
1/
0%
17
08
02
#990000
0!
0.
0/
1%
#995000
1!
1.
1/
0%
07
11
