Peaje_segundo_corte/Semaforo/simulation/qsim/Semaforo.msim.vcd
$comment
	File created using the following command:
		vcd file Semaforo.msim.vcd -direction
$end
$date
	Tue May 14 10:04:13 2024
$end
$version
	ModelSim Version 10.1d
$end
$timescale
	1ps
$end
$scope module Semaforo_vlg_vec_tst $end
$var reg 1 ! alarma $end
$var reg 1 " clk1 $end
$var reg 1 # clk2 $end
$var reg 1 $ enable $end
$var wire 1 % rojo $end
$var wire 1 & talfin $end
$var wire 1 ' verde $end
$var wire 1 ( sampler $end
$scope module i1 $end
$var wire 1 ) gnd $end
$var wire 1 * vcc $end
$var wire 1 + unknown $end
$var tri1 1 , devclrn $end
$var tri1 1 - devpor $end
$var tri1 1 . devoe $end
$var wire 1 / verde~output_o $end
$var wire 1 0 rojo~output_o $end
$var wire 1 1 talfin~output_o $end
$var wire 1 2 clk2~input_o $end
$var wire 1 3 enable~input_o $end
$var wire 1 4 verde~0_combout $end
$var wire 1 5 alarma~input_o $end
$var wire 1 6 verde$latch~combout $end
$var wire 1 7 clk1~input_o $end
$var wire 1 8 rojo~0_combout $end
$upscope $end
$upscope $end
$enddefinitions $end
#0
$dumpvars
0!
0"
0#
0$
1%
0&
0'
x(
0)
1*
x+
1,
1-
1.
0/
10
01
02
03
04
05
06
07
18
$end
#5000
1#
12
0(
#10000
1"
0#
17
02
1(
#15000
1#
12
0(
#20000
0"
0#
07
02
1(
#25000
1#
12
0(
#30000
1"
0#
17
02
1(
#35000
1#
12
0(
#40000
0"
0#
07
02
1(
#45000
1#
12
0(
#50000
1"
0#
17
02
1(
#55000
1#
12
0(
#60000
0"
0#
07
02
1(
#65000
1#
12
0(
#70000
1"
0#
17
02
1(
#75000
1#
12
0(
#80000
0"
0#
07
02
1(
#85000
1#
12
0(
#90000
1"
0#
17
02
1(
#95000
1#
12
0(
#100000
0"
0#
07
02
1(
#105000
1#
12
0(
#110000
1"
0#
17
02
1(
#115000
1#
12
0(
#120000
0"
0#
07
02
1(
#125000
1#
12
0(
#130000
1"
0#
17
02
1(
#135000
1#
12
0(
#140000
1$
0"
0#
13
07
02
1(
08
00
0%
#145000
1#
12
0(
14
16
1/
1'
#150000
1"
0#
17
02
1(
04
06
0/
0'
#155000
1#
12
0(
14
16
1/
1'
#160000
0"
0#
07
02
1(
04
06
0/
0'
#165000
1#
12
0(
14
16
1/
1'
#170000
1"
0#
17
02
1(
04
06
0/
0'
#175000
1#
12
0(
14
16
1/
1'
#180000
0"
0#
07
02
1(
04
06
0/
0'
#185000
1#
12
0(
14
16
1/
1'
#190000
1"
0#
17
02
1(
04
06
0/
0'
#195000
1#
12
0(
14
16
1/
1'
#200000
0"
0#
07
02
1(
04
06
0/
0'
#205000
1#
12
0(
14
16
1/
1'
#210000
1"
0#
17
02
1(
04
06
0/
0'
#215000
1#
12
0(
14
16
1/
1'
#220000
0"
0#
07
02
1(
04
06
0/
0'
#225000
1#
12
0(
14
16
1/
1'
#230000
1"
0#
17
02
1(
04
06
0/
0'
#235000
1#
12
0(
14
16
1/
1'
#240000
0"
0#
07
02
1(
04
06
0/
0'
#245000
1#
12
0(
14
16
1/
1'
#250000
1"
0#
17
02
1(
04
06
0/
0'
#255000
1#
12
0(
14
16
1/
1'
#260000
0"
0#
07
02
1(
04
06
0/
0'
#265000
1#
12
0(
14
16
1/
1'
#270000
1"
0#
17
02
1(
04
06
0/
0'
#275000
1#
12
0(
14
16
1/
1'
#280000
0"
0#
07
02
1(
04
06
0/
0'
#285000
1#
12
0(
14
16
1/
1'
#290000
0$
1"
0#
03
17
02
1(
04
18
10
1%
06
0/
0'
#295000
1#
12
0(
#300000
0"
0#
07
02
1(
#305000
1#
12
0(
#310000
1"
0#
17
02
1(
#315000
1#
12
0(
#320000
0"
0#
07
02
1(
#325000
1#
12
0(
#330000
1"
0#
17
02
1(
#335000
1#
12
0(
#340000
1!
0"
0#
15
07
02
1(
08
00
0%
#345000
1#
12
0(
#350000
1"
0#
17
02
1(
18
10
1%
#355000
1#
12
0(
#360000
0"
0#
07
02
1(
08
00
0%
#365000
1#
12
0(
#370000
1"
0#
17
02
1(
18
10
1%
#375000
1#
12
0(
#380000
0"
0#
07
02
1(
08
00
0%
#385000
1#
12
0(
#390000
1"
0#
17
02
1(
18
10
1%
#395000
1#
12
0(
#400000
1$
0"
0#
13
07
02
1(
08
00
0%
#405000
1#
12
0(
14
#410000
1"
0#
17
02
1(
04
18
10
1%
#415000
1#
12
0(
14
#420000
0"
0#
07
02
1(
04
08
00
0%
#425000
1#
12
0(
14
#430000
1"
0#
17
02
1(
04
18
10
1%
#435000
1#
12
0(
14
#440000
0"
0#
07
02
1(
04
08
00
0%
#445000
1#
12
0(
14
#450000
1"
0#
17
02
1(
04
18
10
1%
#455000
1#
12
0(
14
#460000
0"
0#
07
02
1(
04
08
00
0%
#465000
1#
12
0(
14
#470000
1"
0#
17
02
1(
04
18
10
1%
#475000
1#
12
0(
14
#480000
0"
0#
07
02
1(
04
08
00
0%
#485000
1#
12
0(
14
#490000
1"
0#
17
02
1(
04
18
10
1%
#495000
1#
12
0(
14
#500000
0"
0#
07
02
1(
04
08
00
0%
#505000
1#
12
0(
14
#510000
1"
0#
17
02
1(
04
18
10
1%
#515000
1#
12
0(
14
#520000
0"
0#
07
02
1(
04
08
00
0%
#525000
1#
12
0(
14
#530000
1"
0#
17
02
1(
04
18
10
1%
#535000
1#
12
0(
14
#540000
0$
0"
0#
03
07
02
1(
04
08
00
0%
#545000
1#
12
0(
#550000
1"
0#
17
02
1(
18
10
1%
#555000
1#
12
0(
#560000
0"
0#
07
02
1(
08
00
0%
#565000
1#
12
0(
#570000
1"
0#
17
02
1(
18
10
1%
#575000
1#
12
0(
#580000
0"
0#
07
02
1(
08
00
0%
#585000
1#
12
0(
#590000
1"
0#
17
02
1(
18
10
1%
#595000
1#
12
0(
#600000
0"
0#
07
02
1(
08
00
0%
#605000
1#
12
0(
#610000
1"
0#
17
02
1(
18
10
1%
#615000
1#
12
0(
#620000
0"
0#
07
02
1(
08
00
0%
#625000
1#
12
0(
#630000
1"
0#
17
02
1(
18
10
1%
#635000
1#
12
0(
#640000
0"
0#
07
02
1(
08
00
0%
#645000
1#
12
0(
#650000
0!
1"
0#
05
17
02
1(
18
10
1%
#655000
1#
12
0(
#660000
0"
0#
07
02
1(
#665000
1#
12
0(
#670000
1"
0#
17
02
1(
#675000
1#
12
0(
#680000
0"
0#
07
02
1(
#685000
1#
12
0(
#690000
1"
0#
17
02
1(
#695000
1#
12
0(
#700000
0"
0#
07
02
1(
#705000
1#
12
0(
#710000
1"
0#
17
02
1(
#715000
1#
12
0(
#720000
0"
0#
07
02
1(
#725000
1#
12
0(
#730000
1"
0#
17
02
1(
#735000
1#
12
0(
#740000
0"
0#
07
02
1(
#745000
1#
12
0(
#750000
1"
0#
17
02
1(
#755000
1#
12
0(
#760000
0"
0#
07
02
1(
#765000
1#
12
0(
#770000
1"
0#
17
02
1(
#775000
1#
12
0(
#780000
0"
0#
07
02
1(
#785000
1#
12
0(
#790000
1"
0#
17
02
1(
#795000
1#
12
0(
#800000
0"
0#
07
02
1(
#805000
1#
12
0(
#810000
1"
0#
17
02
1(
#815000
1#
12
0(
#820000
0"
0#
07
02
1(
#825000
1#
12
0(
#830000
1"
0#
17
02
1(
#835000
1#
12
0(
#840000
0"
0#
07
02
1(
#845000
1#
12
0(
#850000
1"
0#
17
02
1(
#855000
1#
12
0(
#860000
0"
0#
07
02
1(
#865000
1#
12
0(
#870000
1"
0#
17
02
1(
#875000
1#
12
0(
#880000
0"
0#
07
02
1(
#885000
1#
12
0(
#890000
1"
0#
17
02
1(
#895000
1#
12
0(
#900000
0"
0#
07
02
1(
#905000
1#
12
0(
#910000
1"
0#
17
02
1(
#915000
1#
12
0(
#920000
0"
0#
07
02
1(
#925000
1#
12
0(
#930000
1"
0#
17
02
1(
#935000
1#
12
0(
#940000
0"
0#
07
02
1(
#945000
1#
12
0(
#950000
1"
0#
17
02
1(
#955000
1#
12
0(
#960000
0"
0#
07
02
1(
#965000
1#
12
0(
#970000
1"
0#
17
02
1(
#975000
1#
12
0(
#980000
0"
0#
07
02
1(
#985000
1#
12
0(
#990000
1"
0#
17
02
1(
#995000
1#
12
0(
