Peaje_VHDL/Contador_tiempo/simulation/qsim/Contador_tiempo.msim.vcd
$comment
	File created using the following command:
		vcd file Contador_tiempo.msim.vcd -direction
$end
$date
	Tue Mar 19 16:51:35 2024
$end
$version
	ModelSim Version 10.1d
$end
$timescale
	1ps
$end
$scope module Contador_tiempo_vlg_vec_tst $end
$var reg 1 ! CLK $end
$var reg 1 " enable $end
$var reg 1 # stop_time $end
$var wire 1 $ count [5] $end
$var wire 1 % count [4] $end
$var wire 1 & count [3] $end
$var wire 1 ' count [2] $end
$var wire 1 ( count [1] $end
$var wire 1 ) count [0] $end
$var wire 1 * minsal $end
$var wire 1 + sampler $end
$scope module i1 $end
$var wire 1 , gnd $end
$var wire 1 - vcc $end
$var wire 1 . unknown $end
$var tri1 1 / devclrn $end
$var tri1 1 0 devpor $end
$var tri1 1 1 devoe $end
$var wire 1 2 count[0]~output_o $end
$var wire 1 3 count[1]~output_o $end
$var wire 1 4 count[2]~output_o $end
$var wire 1 5 count[3]~output_o $end
$var wire 1 6 count[4]~output_o $end
$var wire 1 7 count[5]~output_o $end
$var wire 1 8 minsal~output_o $end
$var wire 1 9 CLK~input_o $end
$var wire 1 : CLK~inputclkctrl_outclk $end
$var wire 1 ; cnt[0]~6_combout $end
$var wire 1 < cnt[0]~7 $end
$var wire 1 = cnt[1]~10_combout $end
$var wire 1 > enable~input_o $end
$var wire 1 ? cnt[1]~11 $end
$var wire 1 @ cnt[2]~12_combout $end
$var wire 1 A cnt[2]~13 $end
$var wire 1 B cnt[3]~14_combout $end
$var wire 1 C cnt[3]~15 $end
$var wire 1 D cnt[4]~16_combout $end
$var wire 1 E stop_time~input_o $end
$var wire 1 F stop~0_combout $end
$var wire 1 G stop~q $end
$var wire 1 H cnt[0]~8_combout $end
$var wire 1 I cnt[4]~17 $end
$var wire 1 J cnt[5]~18_combout $end
$var wire 1 K Equal0~0_combout $end
$var wire 1 L cnt[0]~9_combout $end
$var wire 1 M minsal~0_combout $end
$var wire 1 N minsal~1_combout $end
$var wire 1 O minsal~2_combout $end
$var wire 1 P minsal~3_combout $end
$var wire 1 Q minsal~4_combout $end
$var wire 1 R minsal~reg0_q $end
$var wire 1 S cnt [5] $end
$var wire 1 T cnt [4] $end
$var wire 1 U cnt [3] $end
$var wire 1 V cnt [2] $end
$var wire 1 W cnt [1] $end
$var wire 1 X cnt [0] $end
$upscope $end
$upscope $end
$enddefinitions $end
#0
$dumpvars
0!
0"
0#
0)
0(
0'
0&
0%
0$
0*
x+
0,
1-
x.
1/
10
11
02
03
04
05
06
07
08
09
0:
1;
0<
0=
0>
1?
0@
0A
0B
1C
0D
0E
0F
0G
1H
0I
0J
1K
0L
0M
0N
0O
1P
0Q
0R
0X
0W
0V
0U
0T
0S
$end
#5000
1!
19
1:
0+
#10000
0!
09
0:
1+
#15000
1!
19
1:
0+
#20000
0!
09
0:
1+
#25000
1!
19
1:
0+
#30000
0!
09
0:
1+
#35000
1!
19
1:
0+
#40000
1"
0!
1>
09
0:
1+
1M
#45000
1!
19
1:
0+
1X
0P
1<
0;
12
1)
1=
#50000
0!
09
0:
1+
#55000
1!
19
1:
0+
0X
1W
1P
0K
0<
1;
1O
0?
0=
02
13
0)
1(
1?
1=
1@
0@
#60000
0!
09
0:
1+
#65000
1!
19
1:
0+
1X
1K
1<
0;
12
1)
0?
0=
1@
#70000
0!
09
0:
1+
#75000
1!
19
1:
0+
0X
1V
0W
0<
1;
1A
0@
1?
1=
02
14
03
0)
1'
0(
0=
1B
0A
1@
0B
#80000
0!
09
0:
1+
#85000
1!
19
1:
0+
1X
1<
0;
12
1)
1=
#90000
0!
09
0:
1+
#95000
1!
19
1:
0+
0X
1W
0K
0<
1;
0?
0=
02
13
0)
1(
1?
1=
1A
0@
0A
1@
1B
0B
#100000
0!
09
0:
1+
#105000
1!
19
1:
0+
1X
1K
1<
0;
12
1)
0?
0=
1A
0@
1B
#110000
0!
09
0:
1+
#115000
1!
19
1:
0+
0X
1U
0V
0W
0<
1;
0C
0B
0A
1@
1?
1=
02
15
04
03
0)
1&
0'
0(
0=
1D
1C
1B
0@
0D
#120000
0!
09
0:
1+
#125000
1!
19
1:
0+
1X
1<
0;
12
1)
1=
#130000
0!
09
0:
1+
#135000
1!
19
1:
0+
0X
1W
0<
1;
0?
0=
02
13
0)
1(
1?
1=
1@
0@
#140000
0!
09
0:
1+
#145000
1!
19
1:
0+
1X
1<
0;
12
1)
0?
0=
1@
#150000
0!
09
0:
1+
#155000
1!
19
1:
0+
0X
1V
0W
0<
1;
1A
0@
1?
1=
02
14
03
0)
1'
0(
0=
0C
0B
0A
1@
1D
1C
1B
0D
#160000
0!
09
0:
1+
#165000
1!
19
1:
0+
1X
1<
0;
12
1)
1=
#170000
0!
09
0:
1+
#175000
1!
19
1:
0+
0X
1W
0<
1;
0?
0=
02
13
0)
1(
1?
1=
1A
0@
0A
1@
0C
0B
1C
1B
1D
0D
#180000
0!
09
0:
1+
#185000
1!
19
1:
0+
1X
1<
0;
12
1)
0?
0=
1A
0@
0C
0B
1D
#190000
0!
09
0:
1+
#195000
1!
19
1:
0+
0X
1T
0U
0V
0W
0<
1;
1I
0D
0O
1C
1B
0A
1@
1?
1=
02
16
05
04
03
0)
1%
0&
0'
0(
0=
1J
0I
1D
0B
0@
0J
#200000
0!
09
0:
1+
#205000
1!
19
1:
0+
1X
1<
0;
12
1)
1=
#210000
0!
09
0:
1+
#215000
1!
19
1:
0+
0X
1W
0K
0<
1;
1O
0?
0=
02
13
0)
1(
1?
1=
1@
0@
#220000
0!
09
0:
1+
#225000
1!
19
1:
0+
1X
1K
1<
0;
12
1)
0?
0=
1@
#230000
0!
09
0:
1+
#235000
1!
19
1:
0+
0X
1V
0W
0<
1;
1A
0@
1?
1=
02
14
03
0)
1'
0(
0=
1B
0A
1@
0B
#240000
0!
09
0:
1+
#245000
1!
19
1:
0+
1X
1<
0;
12
1)
1=
#250000
0!
09
0:
1+
#255000
1!
19
1:
0+
0X
1W
0K
0<
1;
0?
0=
02
13
0)
1(
1N
1L
1?
1=
1A
0@
1Q
0A
1@
1B
0B
#260000
0!
09
0:
1+
#265000
1!
19
1:
0+
1R
0T
0V
0W
0N
0L
0D
0O
0@
1K
0=
18
06
04
03
1*
0%
0'
0(
#270000
0!
09
0:
1+
#275000
1!
19
1:
0+
1X
0P
1<
0;
12
1)
0Q
1=
#280000
0!
09
0:
1+
#285000
1!
19
1:
0+
0R
0X
1W
1P
0K
0<
1;
1O
0?
0=
08
02
13
0*
0)
1(
1?
1=
1@
0@
#290000
0!
09
0:
1+
#295000
1!
19
1:
0+
1X
1K
1<
0;
12
1)
0?
0=
1@
#300000
0!
09
0:
1+
#305000
1!
19
1:
0+
0X
1V
0W
0<
1;
1A
0@
1?
1=
02
14
03
0)
1'
0(
0=
1B
0A
1@
0B
#310000
0!
09
0:
1+
#315000
1!
19
1:
0+
1X
1<
0;
12
1)
1=
#320000
0!
09
0:
1+
#325000
1!
19
1:
0+
0X
1W
0K
0<
1;
0?
0=
02
13
0)
1(
1?
1=
1A
0@
0A
1@
1B
0B
#330000
0!
09
0:
1+
#335000
1!
19
1:
0+
1X
1K
1<
0;
12
1)
0?
0=
1A
0@
1B
#340000
0!
09
0:
1+
#345000
1!
19
1:
0+
0X
1U
0V
0W
0<
1;
0C
0B
0A
1@
1?
1=
02
15
04
03
0)
1&
0'
0(
0=
1D
1C
1B
0@
0D
#350000
0!
09
0:
1+
#355000
1!
19
1:
0+
1X
1<
0;
12
1)
1=
#360000
0!
09
0:
1+
#365000
1!
19
1:
0+
0X
1W
0<
1;
0?
0=
02
13
0)
1(
1?
1=
1@
0@
#370000
0!
09
0:
1+
#375000
1!
19
1:
0+
1X
1<
0;
12
1)
0?
0=
1@
#380000
0!
09
0:
1+
#385000
1!
19
1:
0+
0X
1V
0W
0<
1;
1A
0@
1?
1=
02
14
03
0)
1'
0(
0=
0C
0B
0A
1@
1D
1C
1B
0D
#390000
0!
09
0:
1+
#395000
1!
19
1:
0+
1X
1<
0;
12
1)
1=
#400000
0!
09
0:
1+
#405000
1!
19
1:
0+
0X
1W
0<
1;
0?
0=
02
13
0)
1(
1?
1=
1A
0@
0A
1@
0C
0B
1C
1B
1D
0D
#410000
0!
09
0:
1+
#415000
1!
19
1:
0+
1X
1<
0;
12
1)
0?
0=
1A
0@
0C
0B
1D
#420000
0!
09
0:
1+
#425000
1!
19
1:
0+
0X
1T
0U
0V
0W
0<
1;
1I
0D
0O
1C
1B
0A
1@
1?
1=
02
16
05
04
03
0)
1%
0&
0'
0(
0=
1J
0I
1D
0B
0@
0J
#430000
0!
09
0:
1+
#435000
1!
19
1:
0+
1X
1<
0;
12
1)
1=
#440000
0!
09
0:
1+
#445000
1!
19
1:
0+
0X
1W
0K
0<
1;
1O
0?
0=
02
13
0)
1(
1?
1=
1@
0@
#450000
0!
09
0:
1+
#455000
1!
19
1:
0+
1X
1K
1<
0;
12
1)
0?
0=
1@
#460000
0!
09
0:
1+
#465000
1!
19
1:
0+
0X
1V
0W
0<
1;
1A
0@
1?
1=
02
14
03
0)
1'
0(
0=
1B
0A
1@
0B
#470000
0!
09
0:
1+
#475000
1!
19
1:
0+
1X
1<
0;
12
1)
1=
#480000
1#
0!
1E
09
0:
1+
0M
0H
1F
1L
#485000
1!
19
1:
0+
1G
0X
0T
0V
0<
1;
0D
0O
0@
02
06
04
0)
0%
0'
0=
#490000
0!
09
0:
1+
#495000
1!
19
1:
0+
#500000
0!
09
0:
1+
#505000
1!
19
1:
0+
#510000
0!
09
0:
1+
#515000
1!
19
1:
0+
#520000
0!
09
0:
1+
#525000
1!
19
1:
0+
#530000
0!
09
0:
1+
#535000
1!
19
1:
0+
#540000
0!
09
0:
1+
#545000
1!
19
1:
0+
#550000
0!
09
0:
1+
#555000
1!
19
1:
0+
#560000
0!
09
0:
1+
#565000
1!
19
1:
0+
#570000
0!
09
0:
1+
#575000
1!
19
1:
0+
#580000
0!
09
0:
1+
#585000
1!
19
1:
0+
#590000
0#
0!
0E
09
0:
1+
0F
#595000
1!
19
1:
0+
0G
1M
1H
0L
#600000
0!
09
0:
1+
#605000
1!
19
1:
0+
1X
0P
1<
0;
12
1)
1=
#610000
0!
09
0:
1+
#615000
1!
19
1:
0+
0X
1W
1P
0K
0<
1;
1O
0?
0=
02
13
0)
1(
1?
1=
1@
0@
#620000
0"
0!
0>
09
0:
1+
0M
#625000
1!
19
1:
0+
#630000
0!
09
0:
1+
#635000
1!
19
1:
0+
#640000
0!
09
0:
1+
#645000
1!
19
1:
0+
#650000
0!
09
0:
1+
#655000
1!
19
1:
0+
#660000
0!
09
0:
1+
#665000
1!
19
1:
0+
#670000
0!
09
0:
1+
#675000
1!
19
1:
0+
#680000
0!
09
0:
1+
#685000
1!
19
1:
0+
#690000
0!
09
0:
1+
#695000
1!
19
1:
0+
#700000
0!
09
0:
1+
#705000
1!
19
1:
0+
#710000
0!
09
0:
1+
#715000
1!
19
1:
0+
#720000
0!
09
0:
1+
#725000
1!
19
1:
0+
#730000
0!
09
0:
1+
#735000
1!
19
1:
0+
#740000
0!
09
0:
1+
#745000
1!
19
1:
0+
#750000
0!
09
0:
1+
#755000
1!
19
1:
0+
#760000
0!
09
0:
1+
#765000
1!
19
1:
0+
#770000
0!
09
0:
1+
#775000
1!
19
1:
0+
#780000
0!
09
0:
1+
#785000
1!
19
1:
0+
#790000
0!
09
0:
1+
#795000
1!
19
1:
0+
#800000
0!
09
0:
1+
#805000
1!
19
1:
0+
#810000
0!
09
0:
1+
#815000
1!
19
1:
0+
#820000
0!
09
0:
1+
#825000
1!
19
1:
0+
#830000
0!
09
0:
1+
#835000
1!
19
1:
0+
#840000
0!
09
0:
1+
#845000
1!
19
1:
0+
#850000
0!
09
0:
1+
#855000
1!
19
1:
0+
#860000
0!
09
0:
1+
#865000
1!
19
1:
0+
#870000
0!
09
0:
1+
#875000
1!
19
1:
0+
#880000
0!
09
0:
1+
#885000
1!
19
1:
0+
#890000
0!
09
0:
1+
#895000
1!
19
1:
0+
#900000
0!
09
0:
1+
#905000
1!
19
1:
0+
#910000
0!
09
0:
1+
#915000
1!
19
1:
0+
#920000
0!
09
0:
1+
#925000
1!
19
1:
0+
#930000
0!
09
0:
1+
#935000
1!
19
1:
0+
#940000
0!
09
0:
1+
#945000
1!
19
1:
0+
#950000
0!
09
0:
1+
#955000
1!
19
1:
0+
#960000
0!
09
0:
1+
#965000
1!
19
1:
0+
#970000
0!
09
0:
1+
#975000
1!
19
1:
0+
#980000
0!
09
0:
1+
#985000
1!
19
1:
0+
#990000
0!
09
0:
1+
#995000
1!
19
1:
0+
