Contador_des/simulation/qsim/Contador_des.msim.vcd
$comment
	File created using the following command:
		vcd file Contador_des.msim.vcd -direction
$end
$date
	Wed Mar 27 23:24:21 2024
$end
$version
	ModelSim Version 10.1d
$end
$timescale
	1ps
$end
$scope module Contador_des_vlg_vec_tst $end
$var reg 1 ! CLK $end
$var reg 1 " enable $end
$var reg 1 # reset $end
$var wire 1 $ count [5] $end
$var wire 1 % count [4] $end
$var wire 1 & count [3] $end
$var wire 1 ' count [2] $end
$var wire 1 ( count [1] $end
$var wire 1 ) count [0] $end
$var wire 1 * minsal $end
$var wire 1 + sampler $end
$scope module i1 $end
$var wire 1 , gnd $end
$var wire 1 - vcc $end
$var wire 1 . unknown $end
$var tri1 1 / devclrn $end
$var tri1 1 0 devpor $end
$var tri1 1 1 devoe $end
$var wire 1 2 count[0]~output_o $end
$var wire 1 3 count[1]~output_o $end
$var wire 1 4 count[2]~output_o $end
$var wire 1 5 count[3]~output_o $end
$var wire 1 6 count[4]~output_o $end
$var wire 1 7 count[5]~output_o $end
$var wire 1 8 minsal~output_o $end
$var wire 1 9 CLK~input_o $end
$var wire 1 : CLK~inputclkctrl_outclk $end
$var wire 1 ; cnt[0]~6_combout $end
$var wire 1 < reset~input_o $end
$var wire 1 = cnt[0]~7 $end
$var wire 1 > cnt[1]~10_combout $end
$var wire 1 ? enable~input_o $end
$var wire 1 @ cnt[0]~9_combout $end
$var wire 1 A cnt[1]~11 $end
$var wire 1 B cnt[2]~12_combout $end
$var wire 1 C ~GND~combout $end
$var wire 1 D cnt[2]~13 $end
$var wire 1 E cnt[3]~14_combout $end
$var wire 1 F cnt[3]~15 $end
$var wire 1 G cnt[4]~16_combout $end
$var wire 1 H cnt[4]~17 $end
$var wire 1 I cnt[5]~18_combout $end
$var wire 1 J Equal0~0_combout $end
$var wire 1 K cnt[0]~8_combout $end
$var wire 1 L minsal~0_combout $end
$var wire 1 M minsal~1_combout $end
$var wire 1 N minsal~reg0_q $end
$var wire 1 O cnt [5] $end
$var wire 1 P cnt [4] $end
$var wire 1 Q cnt [3] $end
$var wire 1 R cnt [2] $end
$var wire 1 S cnt [1] $end
$var wire 1 T cnt [0] $end
$upscope $end
$upscope $end
$enddefinitions $end
#0
$dumpvars
0!
1"
0#
0)
0(
0'
0&
0%
0$
0*
x+
0,
1-
x.
1/
10
11
02
03
04
05
06
07
08
09
0:
1;
0<
0=
1>
1?
1@
1A
1B
0C
0D
1E
1F
1G
0H
1I
1J
1K
1L
1M
0N
0T
0S
0R
0Q
0P
0O
$end
#5000
1!
19
1:
0+
1N
1T
1O
1P
1Q
1S
0M
0K
1=
0;
0L
0I
0J
1H
0G
0F
0E
0A
0>
18
12
17
16
15
13
1*
1)
1$
1%
1&
1(
1>
1M
1I
1G
1D
0B
1E
#10000
0!
09
0:
1+
#15000
1!
19
1:
0+
0T
0=
1;
02
0)
0>
#20000
0!
09
0:
1+
#25000
1!
19
1:
0+
1T
0S
1=
0;
1A
1>
12
03
1)
0(
0A
0>
0D
1B
1D
0B
0E
1E
#30000
0!
09
0:
1+
#35000
1!
19
1:
0+
0T
0=
1;
02
0)
1A
1>
0D
1B
0E
#40000
0!
09
0:
1+
#45000
1!
19
1:
0+
1T
0Q
1R
1S
1=
0;
1F
1E
1D
0B
0A
0>
12
05
14
13
1)
0&
1'
1(
1>
0G
0F
0E
1B
1G
#50000
0!
09
0:
1+
#55000
1!
19
1:
0+
0T
0=
1;
02
0)
0>
#60000
0!
09
0:
1+
#65000
1!
19
1:
0+
1T
0S
1=
0;
1A
1>
12
03
1)
0(
0A
0>
0B
1B
#70000
0!
09
0:
1+
#75000
1!
19
1:
0+
0T
0=
1;
02
0)
1A
1>
0B
#80000
0!
09
0:
1+
#85000
1!
19
1:
0+
1T
0R
1S
1=
0;
0D
1B
0A
0>
12
04
13
1)
0'
1(
1>
1F
1E
1D
0B
0G
0F
0E
1G
#90000
0!
09
0:
1+
#95000
1!
19
1:
0+
0T
0=
1;
02
0)
0>
#100000
0!
09
0:
1+
#105000
1!
19
1:
0+
1T
0S
1=
0;
1A
1>
12
03
1)
0(
0A
0>
0D
1B
1D
0B
1F
1E
0F
0E
0G
1G
#110000
0!
09
0:
1+
#115000
1!
19
1:
0+
0T
0=
1;
02
0)
1A
1>
0D
1B
1F
1E
0G
#120000
0!
09
0:
1+
#125000
1!
19
1:
0+
1T
0P
1Q
1R
1S
1=
0;
0H
1G
0F
0E
1D
0B
0A
0>
12
06
15
14
13
1)
0%
1&
1'
1(
1>
0I
1H
0G
1E
1B
1I
#130000
0!
09
0:
1+
#135000
1!
19
1:
0+
0T
0=
1;
02
0)
0>
#140000
0!
09
0:
1+
#145000
1!
19
1:
0+
1T
0S
1=
0;
1A
1>
12
03
1)
0(
0A
0>
0B
1B
#150000
0!
09
0:
1+
#155000
1!
19
1:
0+
0T
0=
1;
02
0)
1A
1>
0B
#160000
0!
09
0:
1+
#165000
1!
19
1:
0+
1T
0R
1S
1=
0;
0D
1B
0A
0>
12
04
13
1)
0'
1(
1>
0E
1D
0B
1E
#170000
0!
09
0:
1+
#175000
1!
19
1:
0+
0T
0=
1;
02
0)
0>
#180000
0!
09
0:
1+
#185000
1!
19
1:
0+
1T
0S
1=
0;
1A
1>
12
03
1)
0(
0A
0>
0D
1B
1D
0B
0E
1E
#190000
0!
09
0:
1+
#195000
1!
19
1:
0+
0T
0=
1;
02
0)
1A
1>
0D
1B
0E
#200000
0!
09
0:
1+
#205000
1!
19
1:
0+
1T
0Q
1R
1S
1=
0;
1F
1E
1D
0B
0A
0>
12
05
14
13
1)
0&
1'
1(
1>
0H
1G
0F
0E
1B
0I
1H
0G
1I
#210000
0!
09
0:
1+
#215000
1!
19
1:
0+
0T
0=
1;
02
0)
0>
#220000
0!
09
0:
1+
#225000
1!
19
1:
0+
1T
0S
1=
0;
1A
1>
12
03
1)
0(
0A
0>
0B
1B
#230000
0!
09
0:
1+
#235000
1!
19
1:
0+
0T
0=
1;
02
0)
1A
1>
0B
#240000
0!
09
0:
1+
#245000
1!
19
1:
0+
1T
0R
1S
1=
0;
0D
1B
0A
0>
12
04
13
1)
0'
1(
1>
1F
1E
1D
0B
0H
1G
0F
0E
0I
1H
0G
1I
#250000
0!
09
0:
1+
#255000
1!
19
1:
0+
0T
0=
1;
02
0)
0>
#260000
0!
09
0:
1+
#265000
1!
19
1:
0+
1T
0S
1=
0;
1J
1A
1>
12
03
1)
0(
0A
0>
0D
1B
1D
0B
1F
1E
0F
0E
0H
1G
1H
0G
0I
1I
#270000
0!
09
0:
1+
#275000
1!
19
1:
0+
0T
0=
1;
02
0)
1A
1>
0D
1B
1F
1E
0H
1G
0I
#280000
0!
09
0:
1+
#285000
1!
19
1:
0+
1T
0O
1P
1Q
1R
1S
1=
0;
1L
1I
0J
1H
0G
0F
0E
1D
0B
0A
0>
12
07
16
15
14
13
1)
0$
1%
1&
1'
1(
1>
0I
1G
1E
1B
#290000
0!
09
0:
1+
#295000
1!
19
1:
0+
0T
0=
1;
02
0)
0>
#300000
0!
09
0:
1+
#305000
1!
19
1:
0+
1T
0S
1=
0;
1A
1>
12
03
1)
0(
0A
0>
0B
1B
#310000
0!
09
0:
1+
#315000
1!
19
1:
0+
0T
0=
1;
02
0)
1A
1>
0B
#320000
0!
09
0:
1+
#325000
1!
19
1:
0+
1T
0R
1S
1=
0;
0D
1B
0A
0>
12
04
13
1)
0'
1(
1>
0E
1D
0B
1E
#330000
0!
09
0:
1+
#335000
1!
19
1:
0+
0T
0=
1;
02
0)
0>
#340000
0!
09
0:
1+
#345000
1!
19
1:
0+
1T
0S
1=
0;
1A
1>
12
03
1)
0(
0A
0>
0D
1B
1D
0B
0E
1E
#350000
0!
09
0:
1+
#355000
1!
19
1:
0+
0T
0=
1;
02
0)
1A
1>
0D
1B
0E
#360000
0!
09
0:
1+
#365000
1!
19
1:
0+
1T
0Q
1R
1S
1=
0;
1F
1E
1D
0B
0A
0>
12
05
14
13
1)
0&
1'
1(
1>
0G
0F
0E
1B
1G
#370000
0!
09
0:
1+
#375000
1!
19
1:
0+
0T
0=
1;
02
0)
0>
#380000
0!
09
0:
1+
#385000
1!
19
1:
0+
1T
0S
1=
0;
1A
1>
12
03
1)
0(
0A
0>
0B
1B
#390000
0!
09
0:
1+
#395000
1!
19
1:
0+
0T
0=
1;
02
0)
1A
1>
0B
#400000
0!
09
0:
1+
#405000
1!
19
1:
0+
1T
0R
1S
1=
0;
0D
1B
0A
0>
12
04
13
1)
0'
1(
1>
1F
1E
1D
0B
0G
0F
0E
1G
#410000
0!
09
0:
1+
#415000
1!
19
1:
0+
0T
0=
1;
02
0)
0>
#420000
0!
09
0:
1+
#425000
1!
19
1:
0+
1T
0S
1=
0;
1A
1>
12
03
1)
0(
0A
0>
0D
1B
1D
0B
1F
1E
0F
0E
0G
1G
#430000
0!
09
0:
1+
#435000
1!
19
1:
0+
0T
0=
1;
02
0)
1A
1>
0D
1B
1F
1E
0G
#440000
0!
09
0:
1+
#445000
1!
19
1:
0+
1T
0P
1Q
1R
1S
1=
0;
0H
1G
0F
0E
1D
0B
0A
0>
12
06
15
14
13
1)
0%
1&
1'
1(
1>
1I
1H
0G
1E
1B
0I
#450000
0!
09
0:
1+
#455000
1!
19
1:
0+
0T
0=
1;
02
0)
0>
#460000
0!
09
0:
1+
#465000
1!
19
1:
0+
1T
0S
1=
0;
1A
1>
12
03
1)
0(
0A
0>
0B
1B
#470000
0!
09
0:
1+
#475000
1!
19
1:
0+
0T
0=
1;
02
0)
1A
1>
0B
#480000
0!
09
0:
1+
#485000
1!
19
1:
0+
1T
0R
1S
1=
0;
0D
1B
0A
0>
12
04
13
1)
0'
1(
1>
0E
1D
0B
1E
#490000
0!
09
0:
1+
#495000
1!
19
1:
0+
0T
0=
1;
02
0)
0>
#500000
0!
09
0:
1+
#505000
1!
19
1:
0+
1T
0S
1=
0;
1A
1>
12
03
1)
0(
0A
0>
0D
1B
1D
0B
0E
1E
#510000
0!
09
0:
1+
#515000
1!
19
1:
0+
0T
0=
1;
02
0)
1A
1>
0D
1B
0E
#520000
0!
09
0:
1+
#525000
1!
19
1:
0+
1T
0Q
1R
1S
1=
0;
1F
1E
1D
0B
0A
0>
12
05
14
13
1)
0&
1'
1(
1>
0H
1G
0F
0E
1B
1I
1H
0G
0I
#530000
0!
09
0:
1+
#535000
1!
19
1:
0+
0T
0=
1;
02
0)
0>
#540000
0!
09
0:
1+
#545000
1!
19
1:
0+
1T
0S
1=
0;
1A
1>
12
03
1)
0(
0A
0>
0B
1B
#550000
0!
09
0:
1+
#555000
1!
19
1:
0+
0T
0=
1;
02
0)
1A
1>
0B
#560000
0!
09
0:
1+
#565000
1!
19
1:
0+
1T
0R
1S
1=
0;
0D
1B
0A
0>
12
04
13
1)
0'
1(
1>
1F
1E
1D
0B
0H
1G
0F
0E
1I
1H
0G
0I
#570000
0!
09
0:
1+
#575000
1!
19
1:
0+
0T
0=
1;
02
0)
0>
#580000
0!
09
0:
1+
#585000
1!
19
1:
0+
1T
0S
1=
0;
1J
1A
1>
12
03
1)
0(
0A
0>
0M
0D
1B
1D
0B
1F
1E
0F
0E
0H
1G
1H
0G
1I
0I
#590000
0!
09
0:
1+
#595000
1!
19
1:
0+
0N
0T
1M
1K
0=
1;
08
02
0*
0)
1A
1>
0D
1B
1F
1E
0H
1G
1I
#600000
0!
09
0:
1+
#605000
1!
19
1:
0+
1N
1T
1O
1P
1Q
1S
0M
0K
1=
0;
0L
0I
0J
1H
0G
0F
0E
0A
0>
18
12
17
16
15
13
1*
1)
1$
1%
1&
1(
1>
1M
1I
1G
1D
0B
1E
#610000
0!
09
0:
1+
#615000
1!
19
1:
0+
0T
0=
1;
02
0)
0>
#620000
0!
09
0:
1+
#625000
1!
19
1:
0+
1T
0S
1=
0;
1A
1>
12
03
1)
0(
0A
0>
0D
1B
1D
0B
0E
1E
#630000
0!
09
0:
1+
#635000
1!
19
1:
0+
0T
0=
1;
02
0)
1A
1>
0D
1B
0E
#640000
0!
09
0:
1+
#645000
1!
19
1:
0+
1T
0Q
1R
1S
1=
0;
1F
1E
1D
0B
0A
0>
12
05
14
13
1)
0&
1'
1(
1>
0G
0F
0E
1B
1G
#650000
0!
09
0:
1+
#655000
1!
19
1:
0+
0T
0=
1;
02
0)
0>
#660000
0!
09
0:
1+
#665000
1!
19
1:
0+
1T
0S
1=
0;
1A
1>
12
03
1)
0(
0A
0>
0B
1B
#670000
0!
09
0:
1+
#675000
1!
19
1:
0+
0T
0=
1;
02
0)
1A
1>
0B
#680000
0!
09
0:
1+
#685000
1!
19
1:
0+
1T
0R
1S
1=
0;
0D
1B
0A
0>
12
04
13
1)
0'
1(
1>
1F
1E
1D
0B
0G
0F
0E
1G
#690000
0!
09
0:
1+
#695000
1!
19
1:
0+
0T
0=
1;
02
0)
0>
#700000
0!
09
0:
1+
#705000
1!
19
1:
0+
1T
0S
1=
0;
1A
1>
12
03
1)
0(
0A
0>
0D
1B
1D
0B
1F
1E
0F
0E
0G
1G
#710000
0!
09
0:
1+
#715000
1!
19
1:
0+
0T
0=
1;
02
0)
1A
1>
0D
1B
1F
1E
0G
#720000
0!
09
0:
1+
#725000
1!
19
1:
0+
1T
0P
1Q
1R
1S
1=
0;
0H
1G
0F
0E
1D
0B
0A
0>
12
06
15
14
13
1)
0%
1&
1'
1(
1>
0I
1H
0G
1E
1B
1I
#730000
0!
09
0:
1+
#735000
1!
19
1:
0+
0T
0=
1;
02
0)
0>
#740000
0!
09
0:
1+
#745000
1!
19
1:
0+
1T
0S
1=
0;
1A
1>
12
03
1)
0(
0A
0>
0B
1B
#750000
0!
09
0:
1+
#755000
1!
19
1:
0+
0T
0=
1;
02
0)
1A
1>
0B
#760000
0!
09
0:
1+
#765000
1!
19
1:
0+
1T
0R
1S
1=
0;
0D
1B
0A
0>
12
04
13
1)
0'
1(
1>
0E
1D
0B
1E
#770000
0!
09
0:
1+
#775000
1!
19
1:
0+
0T
0=
1;
02
0)
0>
#780000
0!
09
0:
1+
#785000
1!
19
1:
0+
1T
0S
1=
0;
1A
1>
12
03
1)
0(
0A
0>
0D
1B
1D
0B
0E
1E
#790000
0!
09
0:
1+
#795000
1!
19
1:
0+
0T
0=
1;
02
0)
1A
1>
0D
1B
0E
#800000
0!
09
0:
1+
#805000
1!
19
1:
0+
1T
0Q
1R
1S
1=
0;
1F
1E
1D
0B
0A
0>
12
05
14
13
1)
0&
1'
1(
1>
0H
1G
0F
0E
1B
0I
1H
0G
1I
#810000
0!
09
0:
1+
#815000
1!
19
1:
0+
0T
0=
1;
02
0)
0>
#820000
0!
09
0:
1+
#825000
1!
19
1:
0+
1T
0S
1=
0;
1A
1>
12
03
1)
0(
0A
0>
0B
1B
#830000
0!
09
0:
1+
#835000
1!
19
1:
0+
0T
0=
1;
02
0)
1A
1>
0B
#840000
0!
09
0:
1+
#845000
1!
19
1:
0+
1T
0R
1S
1=
0;
0D
1B
0A
0>
12
04
13
1)
0'
1(
1>
1F
1E
1D
0B
0H
1G
0F
0E
0I
1H
0G
1I
#850000
0!
09
0:
1+
#855000
1!
19
1:
0+
0T
0=
1;
02
0)
0>
#860000
0!
09
0:
1+
#865000
1!
19
1:
0+
1T
0S
1=
0;
1J
1A
1>
12
03
1)
0(
0A
0>
0D
1B
1D
0B
1F
1E
0F
0E
0H
1G
1H
0G
0I
1I
#870000
0!
09
0:
1+
#875000
1!
19
1:
0+
0T
0=
1;
02
0)
1A
1>
0D
1B
1F
1E
0H
1G
0I
#880000
0!
09
0:
1+
#885000
1!
19
1:
0+
1T
0O
1P
1Q
1R
1S
1=
0;
1L
1I
0J
1H
0G
0F
0E
1D
0B
0A
0>
12
07
16
15
14
13
1)
0$
1%
1&
1'
1(
1>
0I
1G
1E
1B
#890000
0!
09
0:
1+
#895000
1!
19
1:
0+
0T
0=
1;
02
0)
0>
#900000
0!
09
0:
1+
#905000
1!
19
1:
0+
1T
0S
1=
0;
1A
1>
12
03
1)
0(
0A
0>
0B
1B
#910000
0!
09
0:
1+
#915000
1!
19
1:
0+
0T
0=
1;
02
0)
1A
1>
0B
#920000
0!
09
0:
1+
#925000
1!
19
1:
0+
1T
0R
1S
1=
0;
0D
1B
0A
0>
12
04
13
1)
0'
1(
1>
0E
1D
0B
1E
#930000
0!
09
0:
1+
#935000
1!
19
1:
0+
0T
0=
1;
02
0)
0>
#940000
0!
09
0:
1+
#945000
1!
19
1:
0+
1T
0S
1=
0;
1A
1>
12
03
1)
0(
0A
0>
0D
1B
1D
0B
0E
1E
#950000
0!
09
0:
1+
#955000
1!
19
1:
0+
0T
0=
1;
02
0)
1A
1>
0D
1B
0E
#960000
0!
09
0:
1+
#965000
1!
19
1:
0+
1T
0Q
1R
1S
1=
0;
1F
1E
1D
0B
0A
0>
12
05
14
13
1)
0&
1'
1(
1>
0G
0F
0E
1B
1G
#970000
0!
09
0:
1+
#975000
1!
19
1:
0+
0T
0=
1;
02
0)
0>
#980000
0!
09
0:
1+
#985000
1!
19
1:
0+
1T
0S
1=
0;
1A
1>
12
03
1)
0(
0A
0>
0B
1B
#990000
0!
09
0:
1+
#995000
1!
19
1:
0+
0T
0=
1;
02
0)
1A
1>
0B
