Peaje_VHDL/Sem_fin/simulation/qsim/Sem_fin.msim.vcd
$comment
	File created using the following command:
		vcd file Sem_fin.msim.vcd -direction
$end
$date
	Fri Mar 15 17:04:51 2024
$end
$version
	ModelSim Version 10.1d
$end
$timescale
	1ps
$end
$scope module Sem_fin_vlg_vec_tst $end
$var reg 1 ! clk1 $end
$var reg 1 " clk2 $end
$var reg 1 # enable $end
$var reg 3 $ limite [2:0] $end
$var wire 1 % rojo $end
$var wire 1 & talfin $end
$var wire 1 ' verde $end
$var wire 1 ( sampler $end
$scope module i1 $end
$var wire 1 ) gnd $end
$var wire 1 * vcc $end
$var wire 1 + unknown $end
$var tri1 1 , devclrn $end
$var tri1 1 - devpor $end
$var tri1 1 . devoe $end
$var wire 1 / verde~output_o $end
$var wire 1 0 rojo~output_o $end
$var wire 1 1 talfin~output_o $end
$var wire 1 2 clk2~input_o $end
$var wire 1 3 limite[1]~input_o $end
$var wire 1 4 enable~input_o $end
$var wire 1 5 limite[2]~input_o $end
$var wire 1 6 limite[0]~input_o $end
$var wire 1 7 Reloj~0_combout $end
$var wire 1 8 verde~0_combout $end
$var wire 1 9 clk1~input_o $end
$var wire 1 : rojo$latch~combout $end
$upscope $end
$upscope $end
$enddefinitions $end
#0
$dumpvars
0!
0"
0#
b0 $
0%
0&
0'
x(
0)
1*
x+
1,
1-
1.
0/
00
01
02
03
04
05
06
07
08
09
0:
$end
#7500
1"
12
0(
#15000
1!
0"
19
02
1(
1:
10
1%
#22500
1"
12
0(
#25000
b1 $
16
1(
#30000
0!
0"
09
02
0(
0:
00
0%
#37500
1"
12
1(
#45000
1!
0"
19
02
0(
1:
10
1%
#50000
b11 $
b10 $
06
13
1(
#52500
1"
12
0(
#60000
0!
0"
09
02
1(
0:
00
0%
#67500
1"
12
0(
#75000
b11 $
1!
0"
16
19
02
1(
1:
10
1%
#82500
1"
12
0(
#90000
0!
0"
09
02
1(
0:
00
0%
#97500
1"
12
0(
#100000
b111 $
b101 $
b100 $
06
03
15
1(
#105000
1!
0"
19
02
0(
1:
10
1%
#112500
1"
12
1(
#120000
0!
0"
09
02
0(
0:
00
0%
#125000
b101 $
16
1(
17
11
1&
#127500
1"
12
0(
18
1/
1'
#135000
1!
0"
19
02
1(
08
0/
0'
#142500
1"
12
0(
18
1/
1'
#150000
b1 $
b0 $
0!
0"
06
05
09
02
1(
07
08
01
0/
0&
0'
#157500
1"
12
0(
#165000
1!
0"
19
02
1(
1:
10
1%
#172500
1"
12
0(
#180000
0!
0"
09
02
1(
0:
00
0%
#187500
1"
12
0(
#195000
1!
0"
19
02
1(
1:
10
1%
#202500
1"
12
0(
#210000
0!
0"
09
02
1(
0:
00
0%
#217500
1"
12
0(
#225000
1!
0"
19
02
1(
1:
10
1%
#232500
1"
12
0(
#240000
0!
0"
09
02
1(
0:
00
0%
#247500
1"
12
0(
#255000
1!
0"
19
02
1(
1:
10
1%
#262500
1"
12
0(
#270000
0!
0"
09
02
1(
0:
00
0%
#277500
1"
12
0(
#285000
1!
0"
19
02
1(
1:
10
1%
#290000
1#
14
0(
17
11
1&
0:
00
0%
#292500
1"
12
1(
18
1/
1'
#300000
0!
0"
09
02
0(
08
0/
0'
#307500
1"
12
1(
18
1/
1'
#315000
1!
0"
19
02
0(
08
0/
0'
#322500
1"
12
1(
18
1/
1'
#330000
0!
0"
09
02
0(
08
0/
0'
#337500
1"
12
1(
18
1/
1'
#345000
1!
0"
19
02
0(
08
0/
0'
#352500
1"
12
1(
18
1/
1'
#360000
0!
0"
09
02
0(
08
0/
0'
#367500
1"
12
1(
18
1/
1'
#375000
1!
0"
19
02
0(
08
0/
0'
#382500
1"
12
1(
18
1/
1'
#390000
0!
0"
09
02
0(
08
0/
0'
#397500
1"
12
1(
18
1/
1'
#405000
1!
0"
19
02
0(
08
0/
0'
#412500
1"
12
1(
18
1/
1'
#420000
0!
0"
09
02
0(
08
0/
0'
#427500
1"
12
1(
18
1/
1'
#435000
1!
0"
19
02
0(
08
0/
0'
#442500
1"
12
1(
18
1/
1'
#450000
0!
0"
09
02
0(
08
0/
0'
#457500
1"
12
1(
18
1/
1'
#465000
1!
0"
19
02
0(
08
0/
0'
#472500
1"
12
1(
18
1/
1'
#480000
0!
0"
09
02
0(
08
0/
0'
#487500
1"
12
1(
18
1/
1'
#495000
1!
0"
19
02
0(
08
0/
0'
#500000
b100 $
0#
15
04
1(
07
01
0&
1:
10
1%
#502500
1"
12
0(
#510000
0!
0"
09
02
1(
0:
00
0%
#517500
1"
12
0(
#525000
b101 $
1!
0"
16
19
02
1(
17
1:
11
10
1&
1%
0:
00
0%
#532500
1"
12
0(
18
1/
1'
#540000
0!
0"
09
02
1(
08
0/
0'
#547500
1"
12
0(
18
1/
1'
#550000
b111 $
b110 $
06
13
1(
#555000
1!
0"
19
02
0(
08
0/
0'
#562500
1"
12
1(
18
1/
1'
#570000
0!
0"
09
02
0(
08
0/
0'
#575000
b111 $
16
1(
#577500
1"
12
0(
18
1/
1'
#585000
1!
0"
19
02
1(
08
0/
0'
#592500
1"
12
0(
18
1/
1'
#600000
b11 $
b1 $
b0 $
0!
0"
06
03
05
09
02
1(
07
08
01
0/
0&
0'
#607500
1"
12
0(
#615000
1!
0"
19
02
1(
1:
10
1%
#622500
1"
12
0(
#625000
b1 $
16
1(
#630000
0!
0"
09
02
0(
0:
00
0%
#637500
1"
12
1(
#645000
1!
0"
19
02
0(
1:
10
1%
#650000
b11 $
b10 $
06
13
1(
#652500
1"
12
0(
#660000
0!
0"
09
02
1(
0:
00
0%
#667500
1"
12
0(
#675000
b11 $
1!
0"
16
19
02
1(
1:
10
1%
#682500
1"
12
0(
#690000
0!
0"
09
02
1(
0:
00
0%
#697500
1"
12
0(
#700000
b111 $
b101 $
b100 $
06
03
15
1(
#705000
1!
0"
19
02
0(
1:
10
1%
#712500
1"
12
1(
#720000
0!
0"
09
02
0(
0:
00
0%
#725000
b101 $
16
1(
17
11
1&
#727500
1"
12
0(
18
1/
1'
#735000
1!
0"
19
02
1(
08
0/
0'
#742500
1"
12
0(
18
1/
1'
#750000
b111 $
b110 $
0!
0"
06
13
09
02
1(
08
0/
0'
#757500
1"
12
0(
18
1/
1'
#765000
1!
0"
19
02
1(
08
0/
0'
#772500
1"
12
0(
18
1/
1'
#775000
b111 $
16
1(
#780000
0!
0"
09
02
0(
08
0/
0'
#787500
1"
12
1(
18
1/
1'
#795000
1!
0"
19
02
0(
08
0/
0'
#800000
b11 $
b1 $
b0 $
06
03
05
1(
07
01
0&
1:
10
1%
#802500
1"
12
0(
#810000
0!
0"
09
02
1(
0:
00
0%
#817500
1"
12
0(
#825000
b1 $
1!
0"
16
19
02
1(
1:
10
1%
#832500
1"
12
0(
#840000
0!
0"
09
02
1(
0:
00
0%
#847500
1"
12
0(
#850000
b11 $
b10 $
06
13
1(
#855000
1!
0"
19
02
0(
1:
10
1%
#862500
1"
12
1(
#870000
0!
0"
09
02
0(
0:
00
0%
#875000
b11 $
16
1(
#877500
1"
12
0(
#885000
1!
0"
19
02
1(
1:
10
1%
#892500
1"
12
0(
#900000
b111 $
b101 $
b100 $
0!
0"
06
03
15
09
02
1(
0:
00
0%
#907500
1"
12
0(
#915000
1!
0"
19
02
1(
1:
10
1%
#922500
1"
12
0(
#925000
b101 $
16
1(
17
11
1&
0:
18
00
1/
0%
1'
#930000
0!
0"
09
02
0(
08
0/
0'
#937500
1"
12
1(
18
1/
1'
#945000
1!
0"
19
02
0(
08
0/
0'
#950000
b111 $
b110 $
06
13
1(
#952500
1"
12
0(
18
1/
1'
#960000
0!
0"
09
02
1(
08
0/
0'
#967500
1"
12
0(
18
1/
1'
#975000
b111 $
1!
0"
16
19
02
1(
08
0/
0'
#982500
1"
12
0(
18
1/
1'
#990000
0!
0"
09
02
1(
08
0/
0'
#997500
1"
12
0(
18
1/
1'
