Peaje_segundo_corte/contador_vehiculos/simulation/qsim/contador_vehiculos.msim.vcd
$comment
	File created using the following command:
		vcd file contador_vehiculos.msim.vcd -direction
$end
$date
	Sat Mar 23 15:11:06 2024
$end
$version
	ModelSim Version 10.1d
$end
$timescale
	1ps
$end
$scope module contador_vehiculos_vlg_vec_tst $end
$var reg 1 ! CLK $end
$var reg 1 " enable $end
$var reg 1 # reset $end
$var wire 1 $ count [5] $end
$var wire 1 % count [4] $end
$var wire 1 & count [3] $end
$var wire 1 ' count [2] $end
$var wire 1 ( count [1] $end
$var wire 1 ) count [0] $end
$var wire 1 * minsal $end
$var wire 1 + sampler $end
$scope module i1 $end
$var wire 1 , gnd $end
$var wire 1 - vcc $end
$var wire 1 . unknown $end
$var tri1 1 / devclrn $end
$var tri1 1 0 devpor $end
$var tri1 1 1 devoe $end
$var wire 1 2 count[0]~output_o $end
$var wire 1 3 count[1]~output_o $end
$var wire 1 4 count[2]~output_o $end
$var wire 1 5 count[3]~output_o $end
$var wire 1 6 count[4]~output_o $end
$var wire 1 7 count[5]~output_o $end
$var wire 1 8 minsal~output_o $end
$var wire 1 9 CLK~input_o $end
$var wire 1 : CLK~inputclkctrl_outclk $end
$var wire 1 ; cnt[0]~6_combout $end
$var wire 1 < cnt[0]~7 $end
$var wire 1 = cnt[1]~10_combout $end
$var wire 1 > reset~input_o $end
$var wire 1 ? enable~input_o $end
$var wire 1 @ cnt[0]~9_combout $end
$var wire 1 A cnt[1]~11 $end
$var wire 1 B cnt[2]~12_combout $end
$var wire 1 C cnt[2]~13 $end
$var wire 1 D cnt[3]~14_combout $end
$var wire 1 E cnt[3]~15 $end
$var wire 1 F cnt[4]~16_combout $end
$var wire 1 G cnt[4]~17 $end
$var wire 1 H cnt[5]~18_combout $end
$var wire 1 I Equal0~0_combout $end
$var wire 1 J cnt[0]~8_combout $end
$var wire 1 K minsal~1_combout $end
$var wire 1 L minsal~0_combout $end
$var wire 1 M minsal~2_combout $end
$var wire 1 N minsal~3_combout $end
$var wire 1 O minsal~reg0_q $end
$var wire 1 P cnt [5] $end
$var wire 1 Q cnt [4] $end
$var wire 1 R cnt [3] $end
$var wire 1 S cnt [2] $end
$var wire 1 T cnt [1] $end
$var wire 1 U cnt [0] $end
$upscope $end
$upscope $end
$enddefinitions $end
#0
$dumpvars
0!
1"
1#
0)
0(
0'
0&
0%
0$
0*
x+
0,
1-
x.
1/
10
11
02
03
04
05
06
07
08
09
0:
1;
0<
0=
1>
1?
1@
1A
0B
0C
0D
1E
0F
0G
0H
1I
0J
0K
0L
0M
0N
0O
0U
0T
0S
0R
0Q
0P
$end
#5000
1!
19
1:
0+
1U
1L
1<
0;
12
1)
1=
#10000
0!
09
0:
1+
#15000
1!
19
1:
0+
0U
1T
0L
0<
1;
0A
0=
02
13
0)
1(
1A
1=
1B
0B
#20000
0!
09
0:
1+
#25000
1!
19
1:
0+
1U
1<
0;
12
1)
0A
0=
1B
#30000
0!
09
0:
1+
#35000
1!
19
1:
0+
0U
1S
0T
0<
1;
1C
0B
1A
1=
02
14
03
0)
1'
0(
0=
1D
0C
1B
0D
#40000
0!
09
0:
1+
#45000
1!
19
1:
0+
1U
1L
1<
0;
12
1)
1=
#50000
0!
09
0:
1+
#55000
1!
19
1:
0+
0U
1T
0L
0<
1;
0A
0=
02
13
0)
1(
1A
1=
1C
0B
0C
1B
1D
0D
#60000
0!
09
0:
1+
#65000
1!
19
1:
0+
1U
1<
0;
12
1)
0A
0=
1C
0B
1D
#70000
0!
09
0:
1+
#75000
1!
19
1:
0+
0U
1R
0S
0T
0<
1;
0E
0D
0C
1B
1A
1=
02
15
04
03
0)
1&
0'
0(
0=
1F
1E
1D
0B
0F
#80000
0!
09
0:
1+
#85000
1!
19
1:
0+
1U
1<
0;
12
1)
1=
#90000
0!
09
0:
1+
#95000
1!
19
1:
0+
0U
1T
0<
1;
0A
0=
02
13
0)
1(
1A
1=
1B
0B
#100000
0!
09
0:
1+
#105000
1!
19
1:
0+
1U
0I
1<
0;
12
1)
0A
0=
1B
#110000
0!
09
0:
1+
#115000
1!
19
1:
0+
0U
1S
0T
1I
0<
1;
1C
0B
1A
1=
02
14
03
0)
1'
0(
0=
0E
0D
0C
1B
1F
1E
1D
0F
#120000
0!
09
0:
1+
#125000
1!
19
1:
0+
1U
1<
0;
12
1)
1=
#130000
0!
09
0:
1+
#135000
1!
19
1:
0+
0U
1T
0<
1;
0A
0=
02
13
0)
1(
1A
1=
1C
0B
0C
1B
0E
0D
1E
1D
1F
0F
#140000
0!
09
0:
1+
#145000
1!
19
1:
0+
1U
1<
0;
12
1)
0A
0=
1C
0B
0E
0D
1F
#150000
0!
09
0:
1+
#155000
1!
19
1:
0+
0U
1Q
0R
0S
0T
0<
1;
1G
0F
1E
1D
0C
1B
1A
1=
02
16
05
04
03
0)
1%
0&
0'
0(
0=
1H
0G
1F
0D
0B
0H
#160000
0!
09
0:
1+
#165000
1!
19
1:
0+
1U
1L
1<
0;
12
1)
1=
#170000
0!
09
0:
1+
#175000
1!
19
1:
0+
0U
1T
0L
0<
1;
0A
0=
02
13
0)
1(
1A
1=
1B
0B
#180000
0!
09
0:
1+
#185000
1!
19
1:
0+
1U
1<
0;
12
1)
0A
0=
1B
#190000
0!
09
0:
1+
#195000
1!
19
1:
0+
0U
1S
0T
0<
1;
1C
0B
1A
1=
02
14
03
0)
1'
0(
0=
1D
0C
1B
0D
#200000
0!
09
0:
1+
#205000
1!
19
1:
0+
1U
1L
1<
0;
12
1)
1=
#210000
0!
09
0:
1+
#215000
1!
19
1:
0+
0U
1T
0L
0<
1;
0A
0=
02
13
0)
1(
1A
1=
1C
0B
0C
1B
1D
0D
#220000
0!
09
0:
1+
#225000
1!
19
1:
0+
1U
1<
0;
12
1)
0A
0=
1C
0B
1D
#230000
0!
09
0:
1+
#235000
1!
19
1:
0+
0U
1R
0S
0T
0<
1;
0E
0D
0C
1B
1A
1=
02
15
04
03
0)
1&
0'
0(
0=
1G
0F
1E
1D
0B
1H
0G
1F
0H
#240000
0!
09
0:
1+
#245000
1!
19
1:
0+
1U
1<
0;
12
1)
1=
#250000
0!
09
0:
1+
#255000
1!
19
1:
0+
0U
1T
0<
1;
0A
0=
02
13
0)
1(
1A
1=
1B
0B
#260000
0!
09
0:
1+
#265000
1!
19
1:
0+
1U
0I
1<
0;
12
1)
0A
0=
1B
#270000
0!
09
0:
1+
#275000
1!
19
1:
0+
0U
1S
0T
1I
0<
1;
1C
0B
1A
1=
02
14
03
0)
1'
0(
0=
0E
0D
0C
1B
1G
0F
1E
1D
1H
0G
1F
0H
#280000
0!
09
0:
1+
#285000
1!
19
1:
0+
1U
1<
0;
12
1)
1=
#290000
0!
09
0:
1+
#295000
1!
19
1:
0+
0U
1T
0<
1;
0A
0=
02
13
0)
1(
1A
1=
1C
0B
0C
1B
0E
0D
1E
1D
1G
0F
0G
1F
1H
0H
#300000
0!
09
0:
1+
#305000
1!
19
1:
0+
1U
1<
0;
12
1)
0A
0=
1C
0B
0E
0D
1G
0F
1H
#310000
0!
09
0:
1+
#315000
1!
19
1:
0+
0U
1P
0Q
0R
0S
0T
0<
1;
0H
0G
1F
1E
1D
0C
1B
1A
1=
02
17
06
05
04
03
0)
1$
0%
0&
0'
0(
0=
1H
0F
0D
0B
#320000
0!
09
0:
1+
#325000
1!
19
1:
0+
1U
1L
1<
0;
12
1)
1=
#330000
0!
09
0:
1+
#335000
1!
19
1:
0+
0U
1T
0L
0<
1;
0A
0=
02
13
0)
1(
1A
1=
1B
0B
#340000
0!
09
0:
1+
#345000
1!
19
1:
0+
1U
1<
0;
12
1)
0A
0=
1B
#350000
0!
09
0:
1+
#355000
1!
19
1:
0+
0U
1S
0T
0<
1;
1C
0B
1A
1=
02
14
03
0)
1'
0(
0=
1D
0C
1B
0D
#360000
0!
09
0:
1+
#365000
1!
19
1:
0+
1U
1L
1<
0;
12
1)
1=
#370000
0!
09
0:
1+
#375000
1!
19
1:
0+
0U
1T
0L
0<
1;
0A
0=
02
13
0)
1(
1A
1=
1C
0B
0C
1B
1D
0D
#380000
0!
09
0:
1+
#385000
1!
19
1:
0+
1U
1<
0;
12
1)
0A
0=
1C
0B
1D
#390000
0!
09
0:
1+
#395000
1!
19
1:
0+
0U
1R
0S
0T
0<
1;
0E
0D
0C
1B
1A
1=
02
15
04
03
0)
1&
0'
0(
0=
1F
1E
1D
0B
0F
#400000
0!
09
0:
1+
#405000
1!
19
1:
0+
1U
1<
0;
12
1)
1=
#410000
0!
09
0:
1+
#415000
1!
19
1:
0+
0U
1T
0<
1;
0A
0=
02
13
0)
1(
1A
1=
1B
0B
#420000
0!
09
0:
1+
#425000
1!
19
1:
0+
1U
0I
1<
0;
12
1)
0A
0=
1B
#430000
0!
09
0:
1+
#435000
1!
19
1:
0+
0U
1S
0T
1I
0<
1;
1C
0B
1A
1=
02
14
03
0)
1'
0(
0=
0E
0D
0C
1B
1F
1E
1D
0F
#440000
0!
09
0:
1+
#445000
1!
19
1:
0+
1U
1<
0;
12
1)
1=
#450000
0!
09
0:
1+
#455000
1!
19
1:
0+
0U
1T
0<
1;
0A
0=
02
13
0)
1(
1A
1=
1C
0B
0C
1B
0E
0D
1E
1D
1F
0F
#460000
0!
09
0:
1+
#465000
1!
19
1:
0+
1U
1<
0;
12
1)
0A
0=
1C
0B
0E
0D
1F
#470000
0!
09
0:
1+
#475000
1!
19
1:
0+
0U
1Q
0R
0S
0T
0<
1;
1K
1G
0F
1E
1D
0C
1B
1A
1=
02
16
05
04
03
0)
1%
0&
0'
0(
0=
1M
0H
0G
1F
0D
0B
1H
#480000
0!
09
0:
1+
#485000
1!
19
1:
0+
1U
1L
1<
0;
12
1)
1=
#490000
0!
09
0:
1+
#495000
1!
19
1:
0+
0U
1T
0L
0<
1;
0A
0=
02
13
0)
1(
1A
1=
1B
0B
#500000
0!
09
0:
1+
#505000
1!
19
1:
0+
1U
1<
0;
12
1)
0A
0=
1B
#510000
0!
09
0:
1+
#515000
1!
19
1:
0+
0U
1S
0T
0<
1;
1C
0B
1A
1=
02
14
03
0)
1'
0(
0=
1D
0C
1B
0D
#520000
0!
09
0:
1+
#525000
1!
19
1:
0+
1U
1L
1<
0;
12
1)
1=
#530000
0!
09
0:
1+
#535000
1!
19
1:
0+
0U
1T
0L
0<
1;
0A
0=
02
13
0)
1(
1A
1=
1C
0B
0C
1B
1D
0D
#540000
0!
09
0:
1+
#545000
1!
19
1:
0+
1U
1<
0;
12
1)
0A
0=
1C
0B
1D
#550000
0!
09
0:
1+
#555000
1!
19
1:
0+
0U
1R
0S
0T
0<
1;
0E
0D
0C
1B
1A
1=
02
15
04
03
0)
1&
0'
0(
0=
1G
0F
1E
1D
0B
0H
0G
1F
1H
#560000
0!
09
0:
1+
#565000
1!
19
1:
0+
1U
1<
0;
12
1)
1=
#570000
0!
09
0:
1+
#575000
1!
19
1:
0+
0U
1T
0<
1;
0A
0=
02
13
0)
1(
1A
1=
1B
0B
#580000
0!
09
0:
1+
#585000
1!
19
1:
0+
1U
0I
1<
0;
12
1)
1N
1J
0A
0=
1B
#590000
0!
09
0:
1+
#595000
1!
19
1:
0+
1O
0U
0P
0Q
0R
0T
0N
0M
1I
0<
1;
0J
0H
0F
0D
1A
1=
18
02
07
06
05
03
1*
0)
0$
0%
0&
0(
1N
0=
0B
#600000
0!
09
0:
1+
#605000
1!
19
1:
0+
1U
1L
1<
0;
12
1)
1M
1=
0N
#610000
0!
09
0:
1+
#615000
1!
19
1:
0+
0O
0U
1T
0K
0L
0<
1;
0A
0=
08
02
13
0*
0)
1(
0M
1A
1=
1B
0B
#620000
0!
09
0:
1+
#625000
1!
19
1:
0+
1U
1<
0;
12
1)
0A
0=
1B
#630000
0!
09
0:
1+
#635000
1!
19
1:
0+
0U
1S
0T
0<
1;
1C
0B
1A
1=
02
14
03
0)
1'
0(
0=
1D
0C
1B
0D
#640000
0!
09
0:
1+
#645000
1!
19
1:
0+
1U
1L
1<
0;
12
1)
1=
#650000
0!
09
0:
1+
#655000
1!
19
1:
0+
0U
1T
0L
0<
1;
0A
0=
02
13
0)
1(
1A
1=
1C
0B
0C
1B
1D
0D
#660000
0!
09
0:
1+
#665000
1!
19
1:
0+
1U
1<
0;
12
1)
0A
0=
1C
0B
1D
#670000
0!
09
0:
1+
#675000
1!
19
1:
0+
0U
1R
0S
0T
0<
1;
0E
0D
0C
1B
1A
1=
02
15
04
03
0)
1&
0'
0(
0=
1F
1E
1D
0B
0F
#680000
0!
09
0:
1+
#685000
1!
19
1:
0+
1U
1<
0;
12
1)
1=
#690000
0!
09
0:
1+
#695000
1!
19
1:
0+
0U
1T
0<
1;
0A
0=
02
13
0)
1(
1A
1=
1B
0B
#700000
0!
09
0:
1+
#705000
1!
19
1:
0+
1U
0I
1<
0;
12
1)
0A
0=
1B
#710000
0!
09
0:
1+
#715000
1!
19
1:
0+
0U
1S
0T
1I
0<
1;
1C
0B
1A
1=
02
14
03
0)
1'
0(
0=
0E
0D
0C
1B
1F
1E
1D
0F
#720000
0!
09
0:
1+
#725000
1!
19
1:
0+
1U
1<
0;
12
1)
1=
#730000
0!
09
0:
1+
#735000
1!
19
1:
0+
0U
1T
0<
1;
0A
0=
02
13
0)
1(
1A
1=
1C
0B
0C
1B
0E
0D
1E
1D
1F
0F
#740000
0!
09
0:
1+
#745000
1!
19
1:
0+
1U
1<
0;
12
1)
0A
0=
1C
0B
0E
0D
1F
#750000
0!
09
0:
1+
#755000
1!
19
1:
0+
0U
1Q
0R
0S
0T
0<
1;
1G
0F
1E
1D
0C
1B
1A
1=
02
16
05
04
03
0)
1%
0&
0'
0(
0=
1H
0G
1F
0D
0B
0H
#760000
0!
09
0:
1+
#765000
1!
19
1:
0+
1U
1L
1<
0;
12
1)
1=
#770000
0!
09
0:
1+
#775000
1!
19
1:
0+
0U
1T
0L
0<
1;
0A
0=
02
13
0)
1(
1A
1=
1B
0B
#780000
0!
09
0:
1+
#785000
1!
19
1:
0+
1U
1<
0;
12
1)
0A
0=
1B
#790000
0!
09
0:
1+
#795000
1!
19
1:
0+
0U
1S
0T
0<
1;
1C
0B
1A
1=
02
14
03
0)
1'
0(
0=
1D
0C
1B
0D
#800000
0!
09
0:
1+
#805000
1!
19
1:
0+
1U
1L
1<
0;
12
1)
1=
#810000
0!
09
0:
1+
#815000
1!
19
1:
0+
0U
1T
0L
0<
1;
0A
0=
02
13
0)
1(
1A
1=
1C
0B
0C
1B
1D
0D
#820000
0!
09
0:
1+
#825000
1!
19
1:
0+
1U
1<
0;
12
1)
0A
0=
1C
0B
1D
#830000
0!
09
0:
1+
#835000
1!
19
1:
0+
0U
1R
0S
0T
0<
1;
0E
0D
0C
1B
1A
1=
02
15
04
03
0)
1&
0'
0(
0=
1G
0F
1E
1D
0B
1H
0G
1F
0H
#840000
0!
09
0:
1+
#845000
1!
19
1:
0+
1U
1<
0;
12
1)
1=
#850000
0!
09
0:
1+
#855000
1!
19
1:
0+
0U
1T
0<
1;
0A
0=
02
13
0)
1(
1A
1=
1B
0B
#860000
0!
09
0:
1+
#865000
1!
19
1:
0+
1U
0I
1<
0;
12
1)
0A
0=
1B
#870000
0!
09
0:
1+
#875000
1!
19
1:
0+
0U
1S
0T
1I
0<
1;
1C
0B
1A
1=
02
14
03
0)
1'
0(
0=
0E
0D
0C
1B
1G
0F
1E
1D
1H
0G
1F
0H
#880000
0!
09
0:
1+
#885000
1!
19
1:
0+
1U
1<
0;
12
1)
1=
#890000
0!
09
0:
1+
#895000
1!
19
1:
0+
0U
1T
0<
1;
0A
0=
02
13
0)
1(
1A
1=
1C
0B
0C
1B
0E
0D
1E
1D
1G
0F
0G
1F
1H
0H
#900000
0!
09
0:
1+
#905000
1!
19
1:
0+
1U
1<
0;
12
1)
0A
0=
1C
0B
0E
0D
1G
0F
1H
#910000
0!
09
0:
1+
#915000
1!
19
1:
0+
0U
1P
0Q
0R
0S
0T
0<
1;
0H
0G
1F
1E
1D
0C
1B
1A
1=
02
17
06
05
04
03
0)
1$
0%
0&
0'
0(
0=
1H
0F
0D
0B
#920000
0!
09
0:
1+
#925000
1!
19
1:
0+
1U
1L
1<
0;
12
1)
1=
#930000
0!
09
0:
1+
#935000
1!
19
1:
0+
0U
1T
0L
0<
1;
0A
0=
02
13
0)
1(
1A
1=
1B
0B
#940000
0!
09
0:
1+
#945000
1!
19
1:
0+
1U
1<
0;
12
1)
0A
0=
1B
#950000
0!
09
0:
1+
#955000
1!
19
1:
0+
0U
1S
0T
0<
1;
1C
0B
1A
1=
02
14
03
0)
1'
0(
0=
1D
0C
1B
0D
#960000
0!
09
0:
1+
#965000
1!
19
1:
0+
1U
1L
1<
0;
12
1)
1=
#970000
0!
09
0:
1+
#975000
1!
19
1:
0+
0U
1T
0L
0<
1;
0A
0=
02
13
0)
1(
1A
1=
1C
0B
0C
1B
1D
0D
#980000
0!
09
0:
1+
#985000
1!
19
1:
0+
1U
1<
0;
12
1)
0A
0=
1C
0B
1D
#990000
0!
09
0:
1+
#995000
1!
19
1:
0+
0U
1R
0S
0T
0<
1;
0E
0D
0C
1B
1A
1=
02
15
04
03
0)
1&
0'
0(
0=
1F
1E
1D
0B
0F
